  0
SECTION
  2
HEADER
  9
$ACADVER
  1
AC1014
  9
$HANDSEED
  5
FFFF
  9
$MEASUREMENT
 70
     1
  0
ENDSEC
  0
SECTION
  2
TABLES
  0
TABLE
  2
VPORT
  5
8
330
0
100
AcDbSymbolTable
 70
     4
  0
VPORT
  5
2E
330
8
100
AcDbSymbolTableRecord
100
AcDbViewportTableRecord
  2
*ACTIVE
 70
     0
 10
0.0
 20
0.0
 11
1.0
 21
1.0
 12
210.0
 22
148.5
 13
0.0
 23
0.0
 14
10.0
 24
10.0
 15
10.0
 25
10.0
 16
0.0
 26
0.0
 36
1.0
 17
0.0
 27
0.0
 37
0.0
 40
341.0
 41
1.24
 42
50.0
 43
0.0
 44
0.0
 50
0.0
 51
0.0
 71
     0
 72
   100
 73
     1
 74
     3
 75
     0
 76
     0
 77
     0
 78
     0
  0
ENDTAB
  0
TABLE
  2
LTYPE
  5
5
330
0
100
AcDbSymbolTable
 70
     1
  0
LTYPE
  5
14
330
5
100
AcDbSymbolTableRecord
100
AcDbLinetypeTableRecord
  2
BYBLOCK
 70
     0
  3

 72
    65
 73
     0
 40
0.0
  0
LTYPE
  5
15
330
5
100
AcDbSymbolTableRecord
100
AcDbLinetypeTableRecord
  2
BYLAYER
 70
     0
  3

 72
    65
 73
     0
 40
0.0
  0
LTYPE
  5
16
330
5
100
AcDbSymbolTableRecord
100
AcDbLinetypeTableRecord
  2
CONTINUOUS
 70
     0
  3
Solid line
 72
    65
 73
     0
 40
0.0
  0
ENDTAB
  0
TABLE
  2
LAYER
  5
2
100
AcDbSymbolTable
 70
4
  0
LAYER
  5
50
100
AcDbSymbolTableRecord
100
AcDbLayerTableRecord
  2
0
 70
0
  6
CONTINUOUS
  0
LAYER
  5
51
100
AcDbSymbolTableRecord
100
AcDbLayerTableRecord
  2
Slide3
 70
0
  6
CONTINUOUS
  0
LAYER
  5
52
100
AcDbSymbolTableRecord
100
AcDbLayerTableRecord
  2
Slide2
 70
0
  6
CONTINUOUS
  0
LAYER
  5
53
100
AcDbSymbolTableRecord
100
AcDbLayerTableRecord
  2
Slide1
 70
0
  6
CONTINUOUS
  0
ENDTAB
  0
TABLE
  2
STYLE
  5
3
330
0
100
AcDbSymbolTable
 70
     1
  0
STYLE
  5
11
330
3
100
AcDbSymbolTableRecord
100
AcDbTextStyleTableRecord
  2
STANDARD
 70
     0
 40
0.0
 41
1.0
 50
0.0
 71
     0
 42
2.5
  3
txt
  4

  0
ENDTAB
  0
TABLE
  2
VIEW
  5
6
330
0
100
AcDbSymbolTable
 70
     0
  0
ENDTAB
  0
TABLE
  2
UCS
  5
7
330
0
100
AcDbSymbolTable
 70
     0
  0
ENDTAB
  0
TABLE
  2
APPID
  5
9
330
0
100
AcDbSymbolTable
 70
     2
  0
APPID
  5
12
330
9
100
AcDbSymbolTableRecord
100
AcDbRegAppTableRecord
  2
ACAD
 70
     0
  0
ENDTAB
  0
TABLE
  2
DIMSTYLE
  5
A
330
0
100
AcDbSymbolTable
 70
     1
  0
DIMSTYLE
105
27
330
A
100
AcDbSymbolTableRecord
100
AcDbDimStyleTableRecord
  2
ISO-25
 70
     0
  3

  4

  5

  6

  7

 40
1.0
 41
2.5
 42
0.625
 43
3.75
 44
1.25
 45
0.0
 46
0.0
 47
0.0
 48
0.0
140
2.5
141
2.5
142
0.0
143
0.03937007874016
144
1.0
145
0.0
146
1.0
147
0.625
 71
     0
 72
     0
 73
     0
 74
     0
 75
     0
 76
     0
 77
     1
 78
     8
170
     0
171
     3
172
     1
173
     0
174
     0
175
     0
176
     0
177
     0
178
     0
270
     2
271
     2
272
     2
273
     2
274
     3
340
11
275
     0
280
     0
281
     0
282
     0
283
     0
284
     8
285
     0
286
     0
287
     3
288
     0
  0
ENDTAB
  0
TABLE
  2
BLOCK_RECORD
  5
1
330
0
100
AcDbSymbolTable
 70
     1
  0
BLOCK_RECORD
  5
1F
330
1
100
AcDbSymbolTableRecord
100
AcDbBlockTableRecord
  2
*MODEL_SPACE
  0
BLOCK_RECORD
  5
1B
330
1
100
AcDbSymbolTableRecord
100
AcDbBlockTableRecord
  2
*PAPER_SPACE
  0
ENDTAB
  0
ENDSEC
  0
SECTION
  2
BLOCKS
  0
BLOCK
  5
20
330
1F
100
AcDbEntity
  8
0
100
AcDbBlockBegin
  2
*MODEL_SPACE
 70
     0
 10
0.0
 20
0.0
 30
0.0
  3
*MODEL_SPACE
  1

  0
ENDBLK
  5
21
330
1F
100
AcDbEntity
  8
0
100
AcDbBlockEnd
  0
BLOCK
  5
1C
330
1B
100
AcDbEntity
 67
     1
  8
0
100
AcDbBlockBegin
  2
*PAPER_SPACE
  1

  0
ENDBLK
  5
1D
330
1B
100
AcDbEntity
 67
     1
  8
0
100
AcDbBlockEnd
  0
ENDSEC
  0
SECTION
  2
ENTITIES
  0
LINE
  5
100
100
AcDbEntity
  8
Slide3
 62
7
100
AcDbLine
 10
488.482000
 20
484.555000
 30
0.0
 11
675.000000
 21
484.555000
 31
0.0
  0
LINE
  5
101
100
AcDbEntity
  8
Slide3
 62
7
100
AcDbLine
 10
675.000000
 20
484.555000
 30
0.0
 11
675.000000
 21
333.431000
 31
0.0
  0
LINE
  5
102
100
AcDbEntity
  8
Slide3
 62
7
100
AcDbLine
 10
675.000000
 20
333.431000
 30
0.0
 11
488.482000
 21
333.431000
 31
0.0
  0
LINE
  5
103
100
AcDbEntity
  8
Slide3
 62
7
100
AcDbLine
 10
488.482000
 20
333.431000
 30
0.0
 11
488.482000
 21
484.555000
 31
0.0
  0
SPLINE
  5
104
100
AcDbEntity
  8
Slide2
 62
7
100
AcDbSpline
 70
8
 71
3
 72
8
 73
4
 74
0
 40
0
 40
0
 40
0
 40
0
 40
1
 40
1
 40
1
 40
1
 10
150.000000
 20
412.500000
 30
0.0
 10
150.000000
 20
399.103000
 30
0.0
 10
142.853000
 20
386.723000
 30
0.0
 10
131.250000
 20
380.024000
 30
0.0
  0
SPLINE
  5
105
100
AcDbEntity
  8
Slide2
 62
7
100
AcDbSpline
 70
8
 71
3
 72
8
 73
4
 74
0
 40
0
 40
0
 40
0
 40
0
 40
1
 40
1
 40
1
 40
1
 10
131.250000
 20
380.024000
 30
0.0
 10
119.647000
 20
373.325000
 30
0.0
 10
105.353000
 20
373.325000
 30
0.0
 10
93.750000
 20
380.024000
 30
0.0
  0
SPLINE
  5
106
100
AcDbEntity
  8
Slide2
 62
7
100
AcDbSpline
 70
8
 71
3
 72
8
 73
4
 74
0
 40
0
 40
0
 40
0
 40
0
 40
1
 40
1
 40
1
 40
1
 10
93.750000
 20
380.024000
 30
0.0
 10
82.147500
 20
386.723000
 30
0.0
 10
75.000000
 20
399.103000
 30
0.0
 10
75.000000
 20
412.500000
 30
0.0
  0
SPLINE
  5
107
100
AcDbEntity
  8
Slide2
 62
7
100
AcDbSpline
 70
8
 71
3
 72
8
 73
4
 74
0
 40
0
 40
0
 40
0
 40
0
 40
1
 40
1
 40
1
 40
1
 10
75.000000
 20
412.500000
 30
0.0
 10
75.000000
 20
425.897000
 30
0.0
 10
82.147500
 20
438.277000
 30
0.0
 10
93.750000
 20
444.976000
 30
0.0
  0
SPLINE
  5
108
100
AcDbEntity
  8
Slide2
 62
7
100
AcDbSpline
 70
8
 71
3
 72
8
 73
4
 74
0
 40
0
 40
0
 40
0
 40
0
 40
1
 40
1
 40
1
 40
1
 10
93.750000
 20
444.976000
 30
0.0
 10
105.353000
 20
451.675000
 30
0.0
 10
119.647000
 20
451.675000
 30
0.0
 10
131.250000
 20
444.976000
 30
0.0
  0
SPLINE
  5
109
100
AcDbEntity
  8
Slide2
 62
7
100
AcDbSpline
 70
8
 71
3
 72
8
 73
4
 74
0
 40
0
 40
0
 40
0
 40
0
 40
1
 40
1
 40
1
 40
1
 10
131.250000
 20
444.976000
 30
0.0
 10
142.853000
 20
438.277000
 30
0.0
 10
150.000000
 20
425.897000
 30
0.0
 10
150.000000
 20
412.500000
 30
0.0
  0
LINE
  5
10a
100
AcDbEntity
  8
Slide2
 62
7
100
AcDbLine
 10
150.000000
 20
412.500000
 30
0.0
 11
150.000000
 21
412.500000
 31
0.0
  0
SPLINE
  5
10b
100
AcDbEntity
  8
Slide2
 62
1
100
AcDbSpline
 70
8
 71
3
 72
8
 73
4
 74
0
 40
0
 40
0
 40
0
 40
0
 40
1
 40
1
 40
1
 40
1
 10
375.000000
 20
412.500000
 30
0.0
 10
375.000000
 20
399.103000
 30
0.0
 10
360.705000
 20
386.723000
 30
0.0
 10
337.500000
 20
380.024000
 30
0.0
  0
SPLINE
  5
10c
100
AcDbEntity
  8
Slide2
 62
1
100
AcDbSpline
 70
8
 71
3
 72
8
 73
4
 74
0
 40
0
 40
0
 40
0
 40
0
 40
1
 40
1
 40
1
 40
1
 10
337.500000
 20
380.024000
 30
0.0
 10
314.295000
 20
373.325000
 30
0.0
 10
285.705000
 20
373.325000
 30
0.0
 10
262.500000
 20
380.024000
 30
0.0
  0
SPLINE
  5
10d
100
AcDbEntity
  8
Slide2
 62
1
100
AcDbSpline
 70
8
 71
3
 72
8
 73
4
 74
0
 40
0
 40
0
 40
0
 40
0
 40
1
 40
1
 40
1
 40
1
 10
262.500000
 20
380.024000
 30
0.0
 10
239.295000
 20
386.723000
 30
0.0
 10
225.000000
 20
399.103000
 30
0.0
 10
225.000000
 20
412.500000
 30
0.0
  0
SPLINE
  5
10e
100
AcDbEntity
  8
Slide2
 62
1
100
AcDbSpline
 70
8
 71
3
 72
8
 73
4
 74
0
 40
0
 40
0
 40
0
 40
0
 40
1
 40
1
 40
1
 40
1
 10
225.000000
 20
412.500000
 30
0.0
 10
225.000000
 20
425.897000
 30
0.0
 10
239.295000
 20
438.277000
 30
0.0
 10
262.500000
 20
444.976000
 30
0.0
  0
SPLINE
  5
10f
100
AcDbEntity
  8
Slide2
 62
1
100
AcDbSpline
 70
8
 71
3
 72
8
 73
4
 74
0
 40
0
 40
0
 40
0
 40
0
 40
1
 40
1
 40
1
 40
1
 10
262.500000
 20
444.976000
 30
0.0
 10
285.705000
 20
451.675000
 30
0.0
 10
314.295000
 20
451.675000
 30
0.0
 10
337.500000
 20
444.976000
 30
0.0
  0
SPLINE
  5
110
100
AcDbEntity
  8
Slide2
 62
1
100
AcDbSpline
 70
8
 71
3
 72
8
 73
4
 74
0
 40
0
 40
0
 40
0
 40
0
 40
1
 40
1
 40
1
 40
1
 10
337.500000
 20
444.976000
 30
0.0
 10
360.705000
 20
438.277000
 30
0.0
 10
375.000000
 20
425.897000
 30
0.0
 10
375.000000
 20
412.500000
 30
0.0
  0
LINE
  5
111
100
AcDbEntity
  8
Slide2
 62
1
100
AcDbLine
 10
375.000000
 20
412.500000
 30
0.0
 11
375.000000
 21
412.500000
 31
0.0
  0
SPLINE
  5
112
100
AcDbEntity
  8
Slide2
 62
3
100
AcDbSpline
 70
8
 71
3
 72
8
 73
4
 74
0
 40
0
 40
0
 40
0
 40
0
 40
1
 40
1
 40
1
 40
1
 10
587.315000
 20
391.632000
 30
0.0
 10
569.112000
 20
378.043000
 30
0.0
 10
535.393000
 20
371.920000
 30
0.0
 10
503.991000
 20
376.501000
 30
0.0
  0
SPLINE
  5
113
100
AcDbEntity
  8
Slide2
 62
3
100
AcDbSpline
 70
8
 71
3
 72
8
 73
4
 74
0
 40
0
 40
0
 40
0
 40
0
 40
1
 40
1
 40
1
 40
1
 10
503.991000
 20
376.501000
 30
0.0
 10
472.589000
 20
381.083000
 30
0.0
 10
450.748000
 20
395.312000
 30
0.0
 10
450.019000
 20
411.664000
 30
0.0
  0
SPLINE
  5
114
100
AcDbEntity
  8
Slide2
 62
3
100
AcDbSpline
 70
8
 71
3
 72
8
 73
4
 74
0
 40
0
 40
0
 40
0
 40
0
 40
1
 40
1
 40
1
 40
1
 10
450.019000
 20
411.664000
 30
0.0
 10
449.289000
 20
428.016000
 30
0.0
 10
469.840000
 20
442.718000
 30
0.0
 10
500.802000
 20
447.995000
 30
0.0
  0
SPLINE
  5
115
100
AcDbEntity
  8
Slide2
 62
3
100
AcDbSpline
 70
8
 71
3
 72
8
 73
4
 74
0
 40
0
 40
0
 40
0
 40
0
 40
1
 40
1
 40
1
 40
1
 10
500.802000
 20
447.995000
 30
0.0
 10
531.764000
 20
453.272000
 30
0.0
 10
565.995000
 20
447.906000
 30
0.0
 10
585.392000
 20
434.736000
 30
0.0
  0
LINE
  5
116
100
AcDbEntity
  8
Slide2
 62
3
100
AcDbLine
 10
585.392000
 20
434.736000
 30
0.0
 11
525.000000
 21
412.500000
 31
0.0
  0
LINE
  5
117
100
AcDbEntity
  8
Slide2
 62
3
100
AcDbLine
 10
525.000000
 20
412.500000
 30
0.0
 11
587.315000
 21
391.632000
 31
0.0
  0
LINE
  5
118
100
AcDbEntity
  8
Slide2
 62
7
100
AcDbLine
 10
75.000000
 20
300.000000
 30
0.0
 11
150.000000
 21
225.000000
 31
0.0
  0
LINE
  5
119
100
AcDbEntity
  8
Slide2
 62
7
100
AcDbLine
 10
150.000000
 20
225.000000
 30
0.0
 11
225.000000
 21
300.000000
 31
0.0
  0
LINE
  5
11a
100
AcDbEntity
  8
Slide2
 62
7
100
AcDbLine
 10
225.000000
 20
300.000000
 30
0.0
 11
300.000000
 21
225.000000
 31
0.0
  0
SPLINE
  5
11b
100
AcDbEntity
  8
Slide2
 62
7
100
AcDbSpline
 70
8
 71
3
 72
8
 73
4
 74
0
 40
0
 40
0
 40
0
 40
0
 40
1
 40
1
 40
1
 40
1
 10
375.000000
 20
300.000000
 30
0.0
 10
375.000000
 20
300.000000
 30
0.0
 10
375.000000
 20
225.000000
 30
0.0
 10
450.000000
 20
225.000000
 30
0.0
  0
SPLINE
  5
11c
100
AcDbEntity
  8
Slide2
 62
7
100
AcDbSpline
 70
8
 71
3
 72
8
 73
4
 74
0
 40
0
 40
0
 40
0
 40
0
 40
1
 40
1
 40
1
 40
1
 10
450.000000
 20
225.000000
 30
0.0
 10
525.000000
 20
225.000000
 30
0.0
 10
450.000000
 20
300.000000
 30
0.0
 10
525.000000
 20
300.000000
 30
0.0
  0
SPLINE
  5
11d
100
AcDbEntity
  8
Slide2
 62
7
100
AcDbSpline
 70
8
 71
3
 72
8
 73
4
 74
0
 40
0
 40
0
 40
0
 40
0
 40
1
 40
1
 40
1
 40
1
 10
525.000000
 20
300.000000
 30
0.0
 10
600.000000
 20
300.000000
 30
0.0
 10
600.000000
 20
225.000000
 30
0.0
 10
600.000000
 20
225.000000
 30
0.0
  0
LINE
  5
11e
100
AcDbEntity
  8
Slide2
 62
3
100
AcDbLine
 10
183.625000
 20
83.145000
 30
0.0
 11
149.621000
 21
89.245800
 31
0.0
  0
LINE
  5
11f
100
AcDbEntity
  8
Slide2
 62
3
100
AcDbLine
 10
149.621000
 20
89.245800
 30
0.0
 11
125.318000
 21
64.692700
 31
0.0
  0
LINE
  5
120
100
AcDbEntity
  8
Slide2
 62
3
100
AcDbLine
 10
125.318000
 20
64.692700
 30
0.0
 11
120.612000
 21
98.917800
 31
0.0
  0
LINE
  5
121
100
AcDbEntity
  8
Slide2
 62
3
100
AcDbLine
 10
120.612000
 20
98.917800
 30
0.0
 11
89.750400
 21
114.444000
 31
0.0
  0
LINE
  5
122
100
AcDbEntity
  8
Slide2
 62
3
100
AcDbLine
 10
89.750400
 20
114.444000
 30
0.0
 11
120.846000
 21
129.496000
 31
0.0
  0
LINE
  5
123
100
AcDbEntity
  8
Slide2
 62
3
100
AcDbLine
 10
120.846000
 20
129.496000
 30
0.0
 11
126.076000
 21
163.645000
 31
0.0
  0
LINE
  5
124
100
AcDbEntity
  8
Slide2
 62
3
100
AcDbLine
 10
126.076000
 20
163.645000
 30
0.0
 11
150.000000
 21
138.722000
 31
0.0
  0
LINE
  5
125
100
AcDbEntity
  8
Slide2
 62
3
100
AcDbLine
 10
150.000000
 20
138.722000
 30
0.0
 11
184.094000
 21
144.301000
 31
0.0
  0
LINE
  5
126
100
AcDbEntity
  8
Slide2
 62
3
100
AcDbLine
 10
184.094000
 20
144.301000
 30
0.0
 11
167.784000
 21
113.846000
 31
0.0
  0
LINE
  5
127
100
AcDbEntity
  8
Slide2
 62
3
100
AcDbLine
 10
167.784000
 20
113.846000
 30
0.0
 11
183.625000
 21
83.145000
 31
0.0
  0
LINE
  5
128
100
AcDbEntity
  8
Slide2
 62
3
100
AcDbLine
 10
333.625000
 20
80.897800
 30
0.0
 11
299.621000
 21
86.998600
 31
0.0
  0
LINE
  5
129
100
AcDbEntity
  8
Slide2
 62
3
100
AcDbLine
 10
299.621000
 20
86.998600
 30
0.0
 11
275.318000
 21
62.445500
 31
0.0
  0
LINE
  5
12a
100
AcDbEntity
  8
Slide2
 62
3
100
AcDbLine
 10
275.318000
 20
62.445500
 30
0.0
 11
270.612000
 21
96.670600
 31
0.0
  0
LINE
  5
12b
100
AcDbEntity
  8
Slide2
 62
3
100
AcDbLine
 10
270.612000
 20
96.670600
 30
0.0
 11
239.750000
 21
112.197000
 31
0.0
  0
LINE
  5
12c
100
AcDbEntity
  8
Slide2
 62
3
100
AcDbLine
 10
239.750000
 20
112.197000
 30
0.0
 11
270.846000
 21
127.248000
 31
0.0
  0
LINE
  5
12d
100
AcDbEntity
  8
Slide2
 62
3
100
AcDbLine
 10
270.846000
 20
127.248000
 30
0.0
 11
276.076000
 21
161.397000
 31
0.0
  0
LINE
  5
12e
100
AcDbEntity
  8
Slide2
 62
3
100
AcDbLine
 10
276.076000
 20
161.397000
 30
0.0
 11
300.000000
 21
136.475000
 31
0.0
  0
LINE
  5
12f
100
AcDbEntity
  8
Slide2
 62
3
100
AcDbLine
 10
300.000000
 20
136.475000
 30
0.0
 11
334.094000
 21
142.053000
 31
0.0
  0
LINE
  5
130
100
AcDbEntity
  8
Slide2
 62
3
100
AcDbLine
 10
334.094000
 20
142.053000
 30
0.0
 11
317.784000
 21
111.599000
 31
0.0
  0
LINE
  5
131
100
AcDbEntity
  8
Slide2
 62
3
100
AcDbLine
 10
317.784000
 20
111.599000
 30
0.0
 11
333.625000
 21
80.897800
 31
0.0
  0
LINE
  5
132
100
AcDbEntity
  8
Slide1
 62
7
100
AcDbLine
 10
75.000000
 20
600.000000
 30
0.0
 11
150.000000
 21
600.000000
 31
0.0
  0
LINE
  5
133
100
AcDbEntity
  8
Slide1
 62
7
100
AcDbLine
 10
150.000000
 20
600.000000
 30
0.0
 11
150.000000
 21
525.000000
 31
0.0
  0
LINE
  5
134
100
AcDbEntity
  8
Slide1
 62
7
100
AcDbLine
 10
150.000000
 20
525.000000
 30
0.0
 11
75.000000
 21
525.000000
 31
0.0
  0
LINE
  5
135
100
AcDbEntity
  8
Slide1
 62
7
100
AcDbLine
 10
75.000000
 20
525.000000
 30
0.0
 11
75.000000
 21
600.000000
 31
0.0
  0
LINE
  5
136
100
AcDbEntity
  8
Slide1
 62
1
100
AcDbLine
 10
225.000000
 20
600.000000
 30
0.0
 11
375.000000
 21
600.000000
 31
0.0
  0
LINE
  5
137
100
AcDbEntity
  8
Slide1
 62
1
100
AcDbLine
 10
375.000000
 20
600.000000
 30
0.0
 11
375.000000
 21
525.000000
 31
0.0
  0
LINE
  5
138
100
AcDbEntity
  8
Slide1
 62
1
100
AcDbLine
 10
375.000000
 20
525.000000
 30
0.0
 11
225.000000
 21
525.000000
 31
0.0
  0
LINE
  5
139
100
AcDbEntity
  8
Slide1
 62
1
100
AcDbLine
 10
225.000000
 20
525.000000
 30
0.0
 11
225.000000
 21
600.000000
 31
0.0
  0
LINE
  5
13a
100
AcDbEntity
  8
Slide1
 62
3
100
AcDbLine
 10
450.000000
 20
600.000000
 30
0.0
 11
600.000000
 21
600.000000
 31
0.0
  0
LINE
  5
13b
100
AcDbEntity
  8
Slide1
 62
3
100
AcDbLine
 10
600.000000
 20
600.000000
 30
0.0
 11
600.000000
 21
525.000000
 31
0.0
  0
LINE
  5
13c
100
AcDbEntity
  8
Slide1
 62
3
100
AcDbLine
 10
600.000000
 20
525.000000
 30
0.0
 11
450.000000
 21
525.000000
 31
0.0
  0
LINE
  5
13d
100
AcDbEntity
  8
Slide1
 62
3
100
AcDbLine
 10
450.000000
 20
525.000000
 30
0.0
 11
450.000000
 21
600.000000
 31
0.0
  0
ENDSEC
  0
SECTION
  2
OBJECTS
  0
DICTIONARY
  5
C
330
0
100
AcDbDictionary
  3
ACAD_GROUP
350
D
  3
ACAD_MLINESTYLE
350
17
  0
DICTIONARY
  5
D
330
C
100
AcDbDictionary
  0
DICTIONARY
  5
1A
330
C
100
AcDbDictionary
  0
DICTIONARY
  5
17
330
C
100
AcDbDictionary
  3
STANDARD
350
18
  0
DICTIONARY
  5
19
330
C
100
AcDbDictionary
  0
ENDSEC
  0
EOF
