<!-- Created with Inkscape (http://www.inkscape.org/) --><svg xmlns:ns1="https://launchpad.net/jessyink" xmlns:dc="http://purl.org/dc/elements/1.1/" xmlns:cc="http://creativecommons.org/ns#" xmlns:rdf="http://www.w3.org/1999/02/22-rdf-syntax-ns#" xmlns:svg="http://www.w3.org/2000/svg" xmlns="http://www.w3.org/2000/svg" xmlns:xlink="http://www.w3.org/1999/xlink" xmlns:sodipodi="http://sodipodi.sourceforge.net/DTD/sodipodi-0.dtd" xmlns:inkscape="http://www.inkscape.org/namespaces/inkscape" width="1000" height="1000" viewBox="0 0 1000 1000" version="1.1" id="svg8" inkscape:version="0.92.4 5da689c313, 2019-01-14" sodipodi:docname="test.svg">
  <defs id="defs33">
    <marker inkscape:stockid="Arrow2Lstart" orient="auto" refY="0.0" refX="0.0" id="Arrow2Lstart" style="overflow:visible" inkscape:isstock="true">
      <path id="path859" style="fill-rule:evenodd;stroke-width:0.625;stroke-linejoin:round;stroke:#000000;stroke-opacity:1;fill:#000000;fill-opacity:1" d="M 8.7185878,4.0337352 L -2.2072895,0.016013256 L 8.7185884,-4.0017078 C 6.9730900,-1.6296469 6.9831476,1.6157441 8.7185878,4.0337352 z " transform="scale(1.1) translate(1,0)"/>
    </marker>
  </defs>
  <sodipodi:namedview pagecolor="#ffffff" bordercolor="#666666" borderopacity="1" objecttolerance="10" gridtolerance="10" guidetolerance="10" inkscape:pageopacity="0" inkscape:pageshadow="2" inkscape:window-width="1920" inkscape:window-height="1017" id="base" showgrid="true" inkscape:snap-text-baseline="true" inkscape:zoom="0.6675088" inkscape:cx="202.7349" inkscape:cy="481.16986" inkscape:window-x="0" inkscape:window-y="0" inkscape:window-maximized="1" inkscape:current-layer="webslicer-layer">
    <inkscape:grid type="xygrid" id="grid27" spacingx="10" spacingy="10" empspacing="10" color="#8080ff" opacity="0.25098039" empcolor="#0000ff" empopacity="0.25098039"/>
  </sodipodi:namedview>
  <g inkscape:groupmode="layer" id="webslicer-layer" inkscape:label="Slide3" style="display:inline">
    <rect height="201.49811" width="248.69112" y="353.92661" x="651.3089" id="slicerect1" style="opacity:0.5;fill:#ff0000;stroke-width:1.11927199">
      <desc id="desc51">format: png
dpi: 96
layout-disposition: bg-el-norepeat
layout-position-anchor: tl</desc>
    </rect>
  <g transform="translate(152.7349,423.43480616206233)" inkscape:label="Grid_Polar:X5:Y5"><g inkscape:label="MajorXGridlines"><path d="M 10.0,0 L 10.0,115.4701076758754" style="stroke:#000000;stroke-width:2.0;fill:none" inkscape:label="MajorXDiv10"/><path d="M 20.0,0 L 20.0,115.4701076758754" style="stroke:#000000;stroke-width:2.0;fill:none" inkscape:label="MajorXDiv20"/><path d="M 30.0,0 L 30.0,115.4701076758754" style="stroke:#000000;stroke-width:2.0;fill:none" inkscape:label="MajorXDiv30"/><path d="M 40.0,0 L 40.0,115.4701076758754" style="stroke:#000000;stroke-width:2.0;fill:none" inkscape:label="MajorXDiv40"/><path d="M 50.0,0 L 50.0,115.4701076758754" style="stroke:#000000;stroke-width:2.0;fill:none" inkscape:label="MajorXDiv50"/><path d="M 60.0,0 L 60.0,115.4701076758754" style="stroke:#000000;stroke-width:2.0;fill:none" inkscape:label="MajorXDiv60"/><path d="M 70.0,0 L 70.0,115.4701076758754" style="stroke:#000000;stroke-width:2.0;fill:none" inkscape:label="MajorXDiv70"/><path d="M 80.0,0 L 80.0,115.4701076758754" style="stroke:#000000;stroke-width:2.0;fill:none" inkscape:label="MajorXDiv80"/><path d="M 90.0,0 L 90.0,115.4701076758754" style="stroke:#000000;stroke-width:2.0;fill:none" inkscape:label="MajorXDiv90"/></g><g inkscape:label="MajorYGridlines"><path d="M 19.0,115.4701076758754 L 0,104.50044744666724" style="stroke:#000000;stroke-width:2.0;fill:none" inkscape:label="MajorYDiv99"/><path d="M 39.0,115.4701076758754 L 0,92.95343667907969" style="stroke:#000000;stroke-width:2.0;fill:none" inkscape:label="MajorYDiv99"/><path d="M 59.0,115.4701076758754 L 0,81.40642591149215" style="stroke:#000000;stroke-width:2.0;fill:none" inkscape:label="MajorYDiv99"/><path d="M 79.0,115.4701076758754 L 0,69.85941514390461" style="stroke:#000000;stroke-width:2.0;fill:none" inkscape:label="MajorYDiv99"/><path d="M 99.0,115.4701076758754 L 0,58.312404376317076" style="stroke:#000000;stroke-width:2.0;fill:none" inkscape:label="MajorYDiv99"/><path d="M 100.0,104.50044744666724 L 0,46.76539360872954" style="stroke:#000000;stroke-width:2.0;fill:none" inkscape:label="MajorYDiv99"/><path d="M 100.0,92.95343667907969 L 0,35.21838284114199" style="stroke:#000000;stroke-width:2.0;fill:none" inkscape:label="MajorYDiv99"/><path d="M 100.0,81.40642591149215 L 0,23.67137207355445" style="stroke:#000000;stroke-width:2.0;fill:none" inkscape:label="MajorYDiv99"/><path d="M 100.0,69.85941514390461 L 0,12.124361305966914" style="stroke:#000000;stroke-width:2.0;fill:none" inkscape:label="MajorYDiv99"/><path d="M 100.0,58.312404376317076 L 0,0.5773505383793776" style="stroke:#000000;stroke-width:2.0;fill:none" inkscape:label="MajorYDiv99"/><path d="M 100.0,46.76539360872954 L 19.0,0" style="stroke:#000000;stroke-width:2.0;fill:none" inkscape:label="MajorYDiv99"/><path d="M 100.0,35.21838284114199 L 39.0,0" style="stroke:#000000;stroke-width:2.0;fill:none" inkscape:label="MajorYDiv99"/><path d="M 100.0,23.67137207355445 L 59.0,0" style="stroke:#000000;stroke-width:2.0;fill:none" inkscape:label="MajorYDiv99"/><path d="M 100.0,12.124361305966914 L 79.0,0" style="stroke:#000000;stroke-width:2.0;fill:none" inkscape:label="MajorYDiv99"/><path d="M 100.0,0.5773505383793776 L 99.0,0" style="stroke:#000000;stroke-width:2.0;fill:none" inkscape:label="MajorYDiv99"/></g><g inkscape:label="MajorZGridlines"><path d="M 81.0,115.4701076758754 L 100.0,104.50044744666724" style="stroke:#000000;stroke-width:2.0;fill:none" inkscape:label="MajorZDiv10"/><path d="M 61.0,115.4701076758754 L 100.0,92.95343667907969" style="stroke:#000000;stroke-width:2.0;fill:none" inkscape:label="MajorZDiv20"/><path d="M 41.0,115.4701076758754 L 100.0,81.40642591149215" style="stroke:#000000;stroke-width:2.0;fill:none" inkscape:label="MajorZDiv30"/><path d="M 21.0,115.4701076758754 L 100.0,69.85941514390461" style="stroke:#000000;stroke-width:2.0;fill:none" inkscape:label="MajorZDiv40"/><path d="M 1.0,115.4701076758754 L 100.0,58.312404376317076" style="stroke:#000000;stroke-width:2.0;fill:none" inkscape:label="MajorZDiv50"/><path d="M 0.0,104.50044744666724 L 100.0,46.76539360872954" style="stroke:#000000;stroke-width:2.0;fill:none" inkscape:label="MajorZDiv60"/><path d="M 0.0,92.95343667907969 L 100.0,35.21838284114199" style="stroke:#000000;stroke-width:2.0;fill:none" inkscape:label="MajorZDiv70"/><path d="M 0.0,81.40642591149215 L 100.0,23.67137207355445" style="stroke:#000000;stroke-width:2.0;fill:none" inkscape:label="MajorZDiv80"/><path d="M 0.0,69.85941514390461 L 100.0,12.124361305966914" style="stroke:#000000;stroke-width:2.0;fill:none" inkscape:label="MajorZDiv90"/><path d="M 0.0,58.312404376317076 L 100.0,0.5773505383793776" style="stroke:#000000;stroke-width:2.0;fill:none" inkscape:label="MajorZDiv100"/><path d="M 0.0,46.76539360872954 L 81.0,0" style="stroke:#000000;stroke-width:2.0;fill:none" inkscape:label="MajorZDiv110"/><path d="M 0.0,35.21838284114199 L 61.0,0" style="stroke:#000000;stroke-width:2.0;fill:none" inkscape:label="MajorZDiv120"/><path d="M 0.0,23.67137207355445 L 41.0,0" style="stroke:#000000;stroke-width:2.0;fill:none" inkscape:label="MajorZDiv130"/><path d="M 0.0,12.124361305966914 L 21.0,0" style="stroke:#000000;stroke-width:2.0;fill:none" inkscape:label="MajorZDiv140"/><path d="M 0.0,0.5773505383793776 L 1.0,0" style="stroke:#000000;stroke-width:2.0;fill:none" inkscape:label="MajorZDiv150"/></g><g inkscape:label="MinorXGridlines"><path d="M 5.0,0 L 5.0,115.4701076758754" style="stroke:#000000;stroke-width:1.0;fill:none" inkscape:label="MajorXDiv5"/><path d="M 15.0,0 L 15.0,115.4701076758754" style="stroke:#000000;stroke-width:1.0;fill:none" inkscape:label="MajorXDiv15"/><path d="M 25.0,0 L 25.0,115.4701076758754" style="stroke:#000000;stroke-width:1.0;fill:none" inkscape:label="MajorXDiv25"/><path d="M 35.0,0 L 35.0,115.4701076758754" style="stroke:#000000;stroke-width:1.0;fill:none" inkscape:label="MajorXDiv35"/><path d="M 45.0,0 L 45.0,115.4701076758754" style="stroke:#000000;stroke-width:1.0;fill:none" inkscape:label="MajorXDiv45"/><path d="M 55.0,0 L 55.0,115.4701076758754" style="stroke:#000000;stroke-width:1.0;fill:none" inkscape:label="MajorXDiv55"/><path d="M 65.0,0 L 65.0,115.4701076758754" style="stroke:#000000;stroke-width:1.0;fill:none" inkscape:label="MajorXDiv65"/><path d="M 75.0,0 L 75.0,115.4701076758754" style="stroke:#000000;stroke-width:1.0;fill:none" inkscape:label="MajorXDiv75"/><path d="M 85.0,0 L 85.0,115.4701076758754" style="stroke:#000000;stroke-width:1.0;fill:none" inkscape:label="MajorXDiv85"/><path d="M 95.0,0 L 95.0,115.4701076758754" style="stroke:#000000;stroke-width:1.0;fill:none" inkscape:label="MajorXDiv95"/></g><g inkscape:label="SubMinorXGridlines"><path d="M 1.0,0 L 1.0,115.4701076758754" style="stroke:#000000;stroke-width:0.3;fill:none" inkscape:label="MajorXDiv1"/><path d="M 2.0,0 L 2.0,115.4701076758754" style="stroke:#000000;stroke-width:0.3;fill:none" inkscape:label="MajorXDiv2"/><path d="M 3.0,0 L 3.0,115.4701076758754" style="stroke:#000000;stroke-width:0.3;fill:none" inkscape:label="MajorXDiv3"/><path d="M 4.0,0 L 4.0,115.4701076758754" style="stroke:#000000;stroke-width:0.3;fill:none" inkscape:label="MajorXDiv4"/><path d="M 6.0,0 L 6.0,115.4701076758754" style="stroke:#000000;stroke-width:0.3;fill:none" inkscape:label="MajorXDiv6"/><path d="M 7.0,0 L 7.0,115.4701076758754" style="stroke:#000000;stroke-width:0.3;fill:none" inkscape:label="MajorXDiv7"/><path d="M 8.0,0 L 8.0,115.4701076758754" style="stroke:#000000;stroke-width:0.3;fill:none" inkscape:label="MajorXDiv8"/><path d="M 9.0,0 L 9.0,115.4701076758754" style="stroke:#000000;stroke-width:0.3;fill:none" inkscape:label="MajorXDiv9"/><path d="M 11.0,0 L 11.0,115.4701076758754" style="stroke:#000000;stroke-width:0.3;fill:none" inkscape:label="MajorXDiv11"/><path d="M 12.0,0 L 12.0,115.4701076758754" style="stroke:#000000;stroke-width:0.3;fill:none" inkscape:label="MajorXDiv12"/><path d="M 13.0,0 L 13.0,115.4701076758754" style="stroke:#000000;stroke-width:0.3;fill:none" inkscape:label="MajorXDiv13"/><path d="M 14.0,0 L 14.0,115.4701076758754" style="stroke:#000000;stroke-width:0.3;fill:none" inkscape:label="MajorXDiv14"/><path d="M 16.0,0 L 16.0,115.4701076758754" style="stroke:#000000;stroke-width:0.3;fill:none" inkscape:label="MajorXDiv16"/><path d="M 17.0,0 L 17.0,115.4701076758754" style="stroke:#000000;stroke-width:0.3;fill:none" inkscape:label="MajorXDiv17"/><path d="M 18.0,0 L 18.0,115.4701076758754" style="stroke:#000000;stroke-width:0.3;fill:none" inkscape:label="MajorXDiv18"/><path d="M 19.0,0 L 19.0,115.4701076758754" style="stroke:#000000;stroke-width:0.3;fill:none" inkscape:label="MajorXDiv19"/><path d="M 21.0,0 L 21.0,115.4701076758754" style="stroke:#000000;stroke-width:0.3;fill:none" inkscape:label="MajorXDiv21"/><path d="M 22.0,0 L 22.0,115.4701076758754" style="stroke:#000000;stroke-width:0.3;fill:none" inkscape:label="MajorXDiv22"/><path d="M 23.0,0 L 23.0,115.4701076758754" style="stroke:#000000;stroke-width:0.3;fill:none" inkscape:label="MajorXDiv23"/><path d="M 24.0,0 L 24.0,115.4701076758754" style="stroke:#000000;stroke-width:0.3;fill:none" inkscape:label="MajorXDiv24"/><path d="M 26.0,0 L 26.0,115.4701076758754" style="stroke:#000000;stroke-width:0.3;fill:none" inkscape:label="MajorXDiv26"/><path d="M 27.0,0 L 27.0,115.4701076758754" style="stroke:#000000;stroke-width:0.3;fill:none" inkscape:label="MajorXDiv27"/><path d="M 28.0,0 L 28.0,115.4701076758754" style="stroke:#000000;stroke-width:0.3;fill:none" inkscape:label="MajorXDiv28"/><path d="M 29.0,0 L 29.0,115.4701076758754" style="stroke:#000000;stroke-width:0.3;fill:none" inkscape:label="MajorXDiv29"/><path d="M 31.0,0 L 31.0,115.4701076758754" style="stroke:#000000;stroke-width:0.3;fill:none" inkscape:label="MajorXDiv31"/><path d="M 32.0,0 L 32.0,115.4701076758754" style="stroke:#000000;stroke-width:0.3;fill:none" inkscape:label="MajorXDiv32"/><path d="M 33.0,0 L 33.0,115.4701076758754" style="stroke:#000000;stroke-width:0.3;fill:none" inkscape:label="MajorXDiv33"/><path d="M 34.0,0 L 34.0,115.4701076758754" style="stroke:#000000;stroke-width:0.3;fill:none" inkscape:label="MajorXDiv34"/><path d="M 36.0,0 L 36.0,115.4701076758754" style="stroke:#000000;stroke-width:0.3;fill:none" inkscape:label="MajorXDiv36"/><path d="M 37.0,0 L 37.0,115.4701076758754" style="stroke:#000000;stroke-width:0.3;fill:none" inkscape:label="MajorXDiv37"/><path d="M 38.0,0 L 38.0,115.4701076758754" style="stroke:#000000;stroke-width:0.3;fill:none" inkscape:label="MajorXDiv38"/><path d="M 39.0,0 L 39.0,115.4701076758754" style="stroke:#000000;stroke-width:0.3;fill:none" inkscape:label="MajorXDiv39"/><path d="M 41.0,0 L 41.0,115.4701076758754" style="stroke:#000000;stroke-width:0.3;fill:none" inkscape:label="MajorXDiv41"/><path d="M 42.0,0 L 42.0,115.4701076758754" style="stroke:#000000;stroke-width:0.3;fill:none" inkscape:label="MajorXDiv42"/><path d="M 43.0,0 L 43.0,115.4701076758754" style="stroke:#000000;stroke-width:0.3;fill:none" inkscape:label="MajorXDiv43"/><path d="M 44.0,0 L 44.0,115.4701076758754" style="stroke:#000000;stroke-width:0.3;fill:none" inkscape:label="MajorXDiv44"/><path d="M 46.0,0 L 46.0,115.4701076758754" style="stroke:#000000;stroke-width:0.3;fill:none" inkscape:label="MajorXDiv46"/><path d="M 47.0,0 L 47.0,115.4701076758754" style="stroke:#000000;stroke-width:0.3;fill:none" inkscape:label="MajorXDiv47"/><path d="M 48.0,0 L 48.0,115.4701076758754" style="stroke:#000000;stroke-width:0.3;fill:none" inkscape:label="MajorXDiv48"/><path d="M 49.0,0 L 49.0,115.4701076758754" style="stroke:#000000;stroke-width:0.3;fill:none" inkscape:label="MajorXDiv49"/><path d="M 51.0,0 L 51.0,115.4701076758754" style="stroke:#000000;stroke-width:0.3;fill:none" inkscape:label="MajorXDiv51"/><path d="M 52.0,0 L 52.0,115.4701076758754" style="stroke:#000000;stroke-width:0.3;fill:none" inkscape:label="MajorXDiv52"/><path d="M 53.0,0 L 53.0,115.4701076758754" style="stroke:#000000;stroke-width:0.3;fill:none" inkscape:label="MajorXDiv53"/><path d="M 54.0,0 L 54.0,115.4701076758754" style="stroke:#000000;stroke-width:0.3;fill:none" inkscape:label="MajorXDiv54"/><path d="M 56.0,0 L 56.0,115.4701076758754" style="stroke:#000000;stroke-width:0.3;fill:none" inkscape:label="MajorXDiv56"/><path d="M 57.0,0 L 57.0,115.4701076758754" style="stroke:#000000;stroke-width:0.3;fill:none" inkscape:label="MajorXDiv57"/><path d="M 58.0,0 L 58.0,115.4701076758754" style="stroke:#000000;stroke-width:0.3;fill:none" inkscape:label="MajorXDiv58"/><path d="M 59.0,0 L 59.0,115.4701076758754" style="stroke:#000000;stroke-width:0.3;fill:none" inkscape:label="MajorXDiv59"/><path d="M 61.0,0 L 61.0,115.4701076758754" style="stroke:#000000;stroke-width:0.3;fill:none" inkscape:label="MajorXDiv61"/><path d="M 62.0,0 L 62.0,115.4701076758754" style="stroke:#000000;stroke-width:0.3;fill:none" inkscape:label="MajorXDiv62"/><path d="M 63.0,0 L 63.0,115.4701076758754" style="stroke:#000000;stroke-width:0.3;fill:none" inkscape:label="MajorXDiv63"/><path d="M 64.0,0 L 64.0,115.4701076758754" style="stroke:#000000;stroke-width:0.3;fill:none" inkscape:label="MajorXDiv64"/><path d="M 66.0,0 L 66.0,115.4701076758754" style="stroke:#000000;stroke-width:0.3;fill:none" inkscape:label="MajorXDiv66"/><path d="M 67.0,0 L 67.0,115.4701076758754" style="stroke:#000000;stroke-width:0.3;fill:none" inkscape:label="MajorXDiv67"/><path d="M 68.0,0 L 68.0,115.4701076758754" style="stroke:#000000;stroke-width:0.3;fill:none" inkscape:label="MajorXDiv68"/><path d="M 69.0,0 L 69.0,115.4701076758754" style="stroke:#000000;stroke-width:0.3;fill:none" inkscape:label="MajorXDiv69"/><path d="M 71.0,0 L 71.0,115.4701076758754" style="stroke:#000000;stroke-width:0.3;fill:none" inkscape:label="MajorXDiv71"/><path d="M 72.0,0 L 72.0,115.4701076758754" style="stroke:#000000;stroke-width:0.3;fill:none" inkscape:label="MajorXDiv72"/><path d="M 73.0,0 L 73.0,115.4701076758754" style="stroke:#000000;stroke-width:0.3;fill:none" inkscape:label="MajorXDiv73"/><path d="M 74.0,0 L 74.0,115.4701076758754" style="stroke:#000000;stroke-width:0.3;fill:none" inkscape:label="MajorXDiv74"/><path d="M 76.0,0 L 76.0,115.4701076758754" style="stroke:#000000;stroke-width:0.3;fill:none" inkscape:label="MajorXDiv76"/><path d="M 77.0,0 L 77.0,115.4701076758754" style="stroke:#000000;stroke-width:0.3;fill:none" inkscape:label="MajorXDiv77"/><path d="M 78.0,0 L 78.0,115.4701076758754" style="stroke:#000000;stroke-width:0.3;fill:none" inkscape:label="MajorXDiv78"/><path d="M 79.0,0 L 79.0,115.4701076758754" style="stroke:#000000;stroke-width:0.3;fill:none" inkscape:label="MajorXDiv79"/><path d="M 81.0,0 L 81.0,115.4701076758754" style="stroke:#000000;stroke-width:0.3;fill:none" inkscape:label="MajorXDiv81"/><path d="M 82.0,0 L 82.0,115.4701076758754" style="stroke:#000000;stroke-width:0.3;fill:none" inkscape:label="MajorXDiv82"/><path d="M 83.0,0 L 83.0,115.4701076758754" style="stroke:#000000;stroke-width:0.3;fill:none" inkscape:label="MajorXDiv83"/><path d="M 84.0,0 L 84.0,115.4701076758754" style="stroke:#000000;stroke-width:0.3;fill:none" inkscape:label="MajorXDiv84"/><path d="M 86.0,0 L 86.0,115.4701076758754" style="stroke:#000000;stroke-width:0.3;fill:none" inkscape:label="MajorXDiv86"/><path d="M 87.0,0 L 87.0,115.4701076758754" style="stroke:#000000;stroke-width:0.3;fill:none" inkscape:label="MajorXDiv87"/><path d="M 88.0,0 L 88.0,115.4701076758754" style="stroke:#000000;stroke-width:0.3;fill:none" inkscape:label="MajorXDiv88"/><path d="M 89.0,0 L 89.0,115.4701076758754" style="stroke:#000000;stroke-width:0.3;fill:none" inkscape:label="MajorXDiv89"/><path d="M 91.0,0 L 91.0,115.4701076758754" style="stroke:#000000;stroke-width:0.3;fill:none" inkscape:label="MajorXDiv91"/><path d="M 92.0,0 L 92.0,115.4701076758754" style="stroke:#000000;stroke-width:0.3;fill:none" inkscape:label="MajorXDiv92"/><path d="M 93.0,0 L 93.0,115.4701076758754" style="stroke:#000000;stroke-width:0.3;fill:none" inkscape:label="MajorXDiv93"/><path d="M 94.0,0 L 94.0,115.4701076758754" style="stroke:#000000;stroke-width:0.3;fill:none" inkscape:label="MajorXDiv94"/><path d="M 96.0,0 L 96.0,115.4701076758754" style="stroke:#000000;stroke-width:0.3;fill:none" inkscape:label="MajorXDiv96"/><path d="M 97.0,0 L 97.0,115.4701076758754" style="stroke:#000000;stroke-width:0.3;fill:none" inkscape:label="MajorXDiv97"/><path d="M 98.0,0 L 98.0,115.4701076758754" style="stroke:#000000;stroke-width:0.3;fill:none" inkscape:label="MajorXDiv98"/><path d="M 99.0,0 L 99.0,115.4701076758754" style="stroke:#000000;stroke-width:0.3;fill:none" inkscape:label="MajorXDiv99"/></g><g inkscape:label="MinorYGridlines"><path d="M 9.0,115.4701076758754 L 0,110.273952830461" style="stroke:#000000;stroke-width:1.0;fill:none" inkscape:label="MajorYDiv99"/><path d="M 29.0,115.4701076758754 L 0,98.72694206287346" style="stroke:#000000;stroke-width:1.0;fill:none" inkscape:label="MajorYDiv99"/><path d="M 49.0,115.4701076758754 L 0,87.17993129528593" style="stroke:#000000;stroke-width:1.0;fill:none" inkscape:label="MajorYDiv99"/><path d="M 69.0,115.4701076758754 L 0,75.63292052769839" style="stroke:#000000;stroke-width:1.0;fill:none" inkscape:label="MajorYDiv99"/><path d="M 89.0,115.4701076758754 L 0,64.08590976011084" style="stroke:#000000;stroke-width:1.0;fill:none" inkscape:label="MajorYDiv99"/><path d="M 100.0,110.273952830461 L 0,52.5388989925233" style="stroke:#000000;stroke-width:1.0;fill:none" inkscape:label="MajorYDiv99"/><path d="M 100.0,98.72694206287346 L 0,40.991888224935764" style="stroke:#000000;stroke-width:1.0;fill:none" inkscape:label="MajorYDiv99"/><path d="M 100.0,87.17993129528593 L 0,29.444877457348227" style="stroke:#000000;stroke-width:1.0;fill:none" inkscape:label="MajorYDiv99"/><path d="M 100.0,75.63292052769839 L 0,17.897866689760676" style="stroke:#000000;stroke-width:1.0;fill:none" inkscape:label="MajorYDiv99"/><path d="M 100.0,64.08590976011084 L 0,6.350855922173139" style="stroke:#000000;stroke-width:1.0;fill:none" inkscape:label="MajorYDiv99"/><path d="M 100.0,52.5388989925233 L 9.0,0" style="stroke:#000000;stroke-width:1.0;fill:none" inkscape:label="MajorYDiv99"/><path d="M 100.0,40.991888224935764 L 29.0,0" style="stroke:#000000;stroke-width:1.0;fill:none" inkscape:label="MajorYDiv99"/><path d="M 100.0,29.444877457348227 L 49.0,0" style="stroke:#000000;stroke-width:1.0;fill:none" inkscape:label="MajorYDiv99"/><path d="M 100.0,17.897866689760676 L 69.0,0" style="stroke:#000000;stroke-width:1.0;fill:none" inkscape:label="MajorYDiv99"/><path d="M 100.0,6.350855922173139 L 89.0,0" style="stroke:#000000;stroke-width:1.0;fill:none" inkscape:label="MajorYDiv99"/></g><g inkscape:label="SubMinorYGridlines"><path d="M 1.0,115.4701076758754 L 0,114.89275713749602" style="stroke:#000000;stroke-width:0.3;fill:none" inkscape:label="MajorYDiv99"/><path d="M 3.0,115.4701076758754 L 0,113.73805606073726" style="stroke:#000000;stroke-width:0.3;fill:none" inkscape:label="MajorYDiv99"/><path d="M 5.0,115.4701076758754 L 0,112.58335498397851" style="stroke:#000000;stroke-width:0.3;fill:none" inkscape:label="MajorYDiv99"/><path d="M 7.0,115.4701076758754 L 0,111.42865390721975" style="stroke:#000000;stroke-width:0.3;fill:none" inkscape:label="MajorYDiv99"/><path d="M 11.0,115.4701076758754 L 0,109.11925175370224" style="stroke:#000000;stroke-width:0.3;fill:none" inkscape:label="MajorYDiv99"/><path d="M 13.0,115.4701076758754 L 0,107.96455067694349" style="stroke:#000000;stroke-width:0.3;fill:none" inkscape:label="MajorYDiv99"/><path d="M 15.0,115.4701076758754 L 0,106.80984960018475" style="stroke:#000000;stroke-width:0.3;fill:none" inkscape:label="MajorYDiv99"/><path d="M 17.0,115.4701076758754 L 0,105.65514852342599" style="stroke:#000000;stroke-width:0.3;fill:none" inkscape:label="MajorYDiv99"/><path d="M 21.0,115.4701076758754 L 0,103.34574636990848" style="stroke:#000000;stroke-width:0.3;fill:none" inkscape:label="MajorYDiv99"/><path d="M 23.0,115.4701076758754 L 0,102.19104529314973" style="stroke:#000000;stroke-width:0.3;fill:none" inkscape:label="MajorYDiv99"/><path d="M 25.0,115.4701076758754 L 0,101.03634421639097" style="stroke:#000000;stroke-width:0.3;fill:none" inkscape:label="MajorYDiv99"/><path d="M 27.0,115.4701076758754 L 0,99.88164313963222" style="stroke:#000000;stroke-width:0.3;fill:none" inkscape:label="MajorYDiv99"/><path d="M 31.0,115.4701076758754 L 0,97.5722409861147" style="stroke:#000000;stroke-width:0.3;fill:none" inkscape:label="MajorYDiv99"/><path d="M 33.0,115.4701076758754 L 0,96.41753990935595" style="stroke:#000000;stroke-width:0.3;fill:none" inkscape:label="MajorYDiv99"/><path d="M 35.0,115.4701076758754 L 0,95.2628388325972" style="stroke:#000000;stroke-width:0.3;fill:none" inkscape:label="MajorYDiv99"/><path d="M 37.0,115.4701076758754 L 0,94.10813775583844" style="stroke:#000000;stroke-width:0.3;fill:none" inkscape:label="MajorYDiv99"/><path d="M 41.0,115.4701076758754 L 0,91.79873560232093" style="stroke:#000000;stroke-width:0.3;fill:none" inkscape:label="MajorYDiv99"/><path d="M 43.0,115.4701076758754 L 0,90.64403452556218" style="stroke:#000000;stroke-width:0.3;fill:none" inkscape:label="MajorYDiv99"/><path d="M 45.0,115.4701076758754 L 0,89.48933344880344" style="stroke:#000000;stroke-width:0.3;fill:none" inkscape:label="MajorYDiv99"/><path d="M 47.0,115.4701076758754 L 0,88.33463237204468" style="stroke:#000000;stroke-width:0.3;fill:none" inkscape:label="MajorYDiv99"/><path d="M 51.0,115.4701076758754 L 0,86.02523021852717" style="stroke:#000000;stroke-width:0.3;fill:none" inkscape:label="MajorYDiv99"/><path d="M 53.0,115.4701076758754 L 0,84.87052914176842" style="stroke:#000000;stroke-width:0.3;fill:none" inkscape:label="MajorYDiv99"/><path d="M 55.0,115.4701076758754 L 0,83.71582806500966" style="stroke:#000000;stroke-width:0.3;fill:none" inkscape:label="MajorYDiv99"/><path d="M 57.0,115.4701076758754 L 0,82.5611269882509" style="stroke:#000000;stroke-width:0.3;fill:none" inkscape:label="MajorYDiv99"/><path d="M 61.0,115.4701076758754 L 0,80.25172483473341" style="stroke:#000000;stroke-width:0.3;fill:none" inkscape:label="MajorYDiv99"/><path d="M 63.0,115.4701076758754 L 0,79.09702375797465" style="stroke:#000000;stroke-width:0.3;fill:none" inkscape:label="MajorYDiv99"/><path d="M 65.0,115.4701076758754 L 0,77.9423226812159" style="stroke:#000000;stroke-width:0.3;fill:none" inkscape:label="MajorYDiv99"/><path d="M 67.0,115.4701076758754 L 0,76.78762160445714" style="stroke:#000000;stroke-width:0.3;fill:none" inkscape:label="MajorYDiv99"/><path d="M 71.0,115.4701076758754 L 0,74.47821945093963" style="stroke:#000000;stroke-width:0.3;fill:none" inkscape:label="MajorYDiv99"/><path d="M 73.0,115.4701076758754 L 0,73.32351837418088" style="stroke:#000000;stroke-width:0.3;fill:none" inkscape:label="MajorYDiv99"/><path d="M 75.0,115.4701076758754 L 0,72.16881729742212" style="stroke:#000000;stroke-width:0.3;fill:none" inkscape:label="MajorYDiv99"/><path d="M 77.0,115.4701076758754 L 0,71.01411622066337" style="stroke:#000000;stroke-width:0.3;fill:none" inkscape:label="MajorYDiv99"/><path d="M 81.0,115.4701076758754 L 0,68.70471406714586" style="stroke:#000000;stroke-width:0.3;fill:none" inkscape:label="MajorYDiv99"/><path d="M 83.0,115.4701076758754 L 0,67.5500129903871" style="stroke:#000000;stroke-width:0.3;fill:none" inkscape:label="MajorYDiv99"/><path d="M 85.0,115.4701076758754 L 0,66.39531191362835" style="stroke:#000000;stroke-width:0.3;fill:none" inkscape:label="MajorYDiv99"/><path d="M 87.0,115.4701076758754 L 0,65.24061083686959" style="stroke:#000000;stroke-width:0.3;fill:none" inkscape:label="MajorYDiv99"/><path d="M 91.0,115.4701076758754 L 0,62.93120868335209" style="stroke:#000000;stroke-width:0.3;fill:none" inkscape:label="MajorYDiv99"/><path d="M 93.0,115.4701076758754 L 0,61.776507606593334" style="stroke:#000000;stroke-width:0.3;fill:none" inkscape:label="MajorYDiv99"/><path d="M 95.0,115.4701076758754 L 0,60.62180652983458" style="stroke:#000000;stroke-width:0.3;fill:none" inkscape:label="MajorYDiv99"/><path d="M 97.0,115.4701076758754 L 0,59.467105453075824" style="stroke:#000000;stroke-width:0.3;fill:none" inkscape:label="MajorYDiv99"/><path d="M 100.0,114.89275713749602 L 0,57.15770329955832" style="stroke:#000000;stroke-width:0.3;fill:none" inkscape:label="MajorYDiv99"/><path d="M 100.0,113.73805606073726 L 0,56.003002222799566" style="stroke:#000000;stroke-width:0.3;fill:none" inkscape:label="MajorYDiv99"/><path d="M 100.0,112.58335498397851 L 0,54.84830114604081" style="stroke:#000000;stroke-width:0.3;fill:none" inkscape:label="MajorYDiv99"/><path d="M 100.0,111.42865390721975 L 0,53.693600069282056" style="stroke:#000000;stroke-width:0.3;fill:none" inkscape:label="MajorYDiv99"/><path d="M 100.0,109.11925175370224 L 0,51.384197915764545" style="stroke:#000000;stroke-width:0.3;fill:none" inkscape:label="MajorYDiv99"/><path d="M 100.0,107.96455067694349 L 0,50.22949683900579" style="stroke:#000000;stroke-width:0.3;fill:none" inkscape:label="MajorYDiv99"/><path d="M 100.0,106.80984960018475 L 0,49.074795762247035" style="stroke:#000000;stroke-width:0.3;fill:none" inkscape:label="MajorYDiv99"/><path d="M 100.0,105.65514852342599 L 0,47.92009468548828" style="stroke:#000000;stroke-width:0.3;fill:none" inkscape:label="MajorYDiv99"/><path d="M 100.0,103.34574636990848 L 0,45.610692531970784" style="stroke:#000000;stroke-width:0.3;fill:none" inkscape:label="MajorYDiv99"/><path d="M 100.0,102.19104529314973 L 0,44.45599145521203" style="stroke:#000000;stroke-width:0.3;fill:none" inkscape:label="MajorYDiv99"/><path d="M 100.0,101.03634421639097 L 0,43.301290378453274" style="stroke:#000000;stroke-width:0.3;fill:none" inkscape:label="MajorYDiv99"/><path d="M 100.0,99.88164313963222 L 0,42.14658930169452" style="stroke:#000000;stroke-width:0.3;fill:none" inkscape:label="MajorYDiv99"/><path d="M 100.0,97.5722409861147 L 0,39.83718714817701" style="stroke:#000000;stroke-width:0.3;fill:none" inkscape:label="MajorYDiv99"/><path d="M 100.0,96.41753990935595 L 0,38.68248607141825" style="stroke:#000000;stroke-width:0.3;fill:none" inkscape:label="MajorYDiv99"/><path d="M 100.0,95.2628388325972 L 0,37.5277849946595" style="stroke:#000000;stroke-width:0.3;fill:none" inkscape:label="MajorYDiv99"/><path d="M 100.0,94.10813775583844 L 0,36.37308391790074" style="stroke:#000000;stroke-width:0.3;fill:none" inkscape:label="MajorYDiv99"/><path d="M 100.0,91.79873560232093 L 0,34.06368176438323" style="stroke:#000000;stroke-width:0.3;fill:none" inkscape:label="MajorYDiv99"/><path d="M 100.0,90.64403452556218 L 0,32.90898068762448" style="stroke:#000000;stroke-width:0.3;fill:none" inkscape:label="MajorYDiv99"/><path d="M 100.0,89.48933344880344 L 0,31.754279610865737" style="stroke:#000000;stroke-width:0.3;fill:none" inkscape:label="MajorYDiv99"/><path d="M 100.0,88.33463237204468 L 0,30.599578534106982" style="stroke:#000000;stroke-width:0.3;fill:none" inkscape:label="MajorYDiv99"/><path d="M 100.0,86.02523021852717 L 0,28.29017638058947" style="stroke:#000000;stroke-width:0.3;fill:none" inkscape:label="MajorYDiv99"/><path d="M 100.0,84.87052914176842 L 0,27.135475303830717" style="stroke:#000000;stroke-width:0.3;fill:none" inkscape:label="MajorYDiv99"/><path d="M 100.0,83.71582806500966 L 0,25.98077422707196" style="stroke:#000000;stroke-width:0.3;fill:none" inkscape:label="MajorYDiv99"/><path d="M 100.0,82.5611269882509 L 0,24.826073150313206" style="stroke:#000000;stroke-width:0.3;fill:none" inkscape:label="MajorYDiv99"/><path d="M 100.0,80.25172483473341 L 0,22.516670996795696" style="stroke:#000000;stroke-width:0.3;fill:none" inkscape:label="MajorYDiv99"/><path d="M 100.0,79.09702375797465 L 0,21.36196992003694" style="stroke:#000000;stroke-width:0.3;fill:none" inkscape:label="MajorYDiv99"/><path d="M 100.0,77.9423226812159 L 0,20.207268843278186" style="stroke:#000000;stroke-width:0.3;fill:none" inkscape:label="MajorYDiv99"/><path d="M 100.0,76.78762160445714 L 0,19.05256776651943" style="stroke:#000000;stroke-width:0.3;fill:none" inkscape:label="MajorYDiv99"/><path d="M 100.0,74.47821945093963 L 0,16.743165613001935" style="stroke:#000000;stroke-width:0.3;fill:none" inkscape:label="MajorYDiv99"/><path d="M 100.0,73.32351837418088 L 0,15.58846453624318" style="stroke:#000000;stroke-width:0.3;fill:none" inkscape:label="MajorYDiv99"/><path d="M 100.0,72.16881729742212 L 0,14.433763459484425" style="stroke:#000000;stroke-width:0.3;fill:none" inkscape:label="MajorYDiv99"/><path d="M 100.0,71.01411622066337 L 0,13.27906238272567" style="stroke:#000000;stroke-width:0.3;fill:none" inkscape:label="MajorYDiv99"/><path d="M 100.0,68.70471406714586 L 0,10.96966022920816" style="stroke:#000000;stroke-width:0.3;fill:none" inkscape:label="MajorYDiv99"/><path d="M 100.0,67.5500129903871 L 0,9.814959152449404" style="stroke:#000000;stroke-width:0.3;fill:none" inkscape:label="MajorYDiv99"/><path d="M 100.0,66.39531191362835 L 0,8.660258075690649" style="stroke:#000000;stroke-width:0.3;fill:none" inkscape:label="MajorYDiv99"/><path d="M 100.0,65.24061083686959 L 0,7.505556998931894" style="stroke:#000000;stroke-width:0.3;fill:none" inkscape:label="MajorYDiv99"/><path d="M 100.0,62.93120868335209 L 0,5.196154845414384" style="stroke:#000000;stroke-width:0.3;fill:none" inkscape:label="MajorYDiv99"/><path d="M 100.0,61.776507606593334 L 0,4.041453768655629" style="stroke:#000000;stroke-width:0.3;fill:none" inkscape:label="MajorYDiv99"/><path d="M 100.0,60.62180652983458 L 0,2.8867526918968736" style="stroke:#000000;stroke-width:0.3;fill:none" inkscape:label="MajorYDiv99"/><path d="M 100.0,59.467105453075824 L 0,1.7320516151381327" style="stroke:#000000;stroke-width:0.3;fill:none" inkscape:label="MajorYDiv99"/><path d="M 100.0,57.15770329955832 L 1.0,0" style="stroke:#000000;stroke-width:0.3;fill:none" inkscape:label="MajorYDiv99"/><path d="M 100.0,56.003002222799566 L 3.0,0" style="stroke:#000000;stroke-width:0.3;fill:none" inkscape:label="MajorYDiv99"/><path d="M 100.0,54.84830114604081 L 5.0,0" style="stroke:#000000;stroke-width:0.3;fill:none" inkscape:label="MajorYDiv99"/><path d="M 100.0,53.693600069282056 L 7.0,0" style="stroke:#000000;stroke-width:0.3;fill:none" inkscape:label="MajorYDiv99"/><path d="M 100.0,51.384197915764545 L 11.0,0" style="stroke:#000000;stroke-width:0.3;fill:none" inkscape:label="MajorYDiv99"/><path d="M 100.0,50.22949683900579 L 13.0,0" style="stroke:#000000;stroke-width:0.3;fill:none" inkscape:label="MajorYDiv99"/><path d="M 100.0,49.074795762247035 L 15.0,0" style="stroke:#000000;stroke-width:0.3;fill:none" inkscape:label="MajorYDiv99"/><path d="M 100.0,47.92009468548828 L 17.0,0" style="stroke:#000000;stroke-width:0.3;fill:none" inkscape:label="MajorYDiv99"/><path d="M 100.0,45.610692531970784 L 21.0,0" style="stroke:#000000;stroke-width:0.3;fill:none" inkscape:label="MajorYDiv99"/><path d="M 100.0,44.45599145521203 L 23.0,0" style="stroke:#000000;stroke-width:0.3;fill:none" inkscape:label="MajorYDiv99"/><path d="M 100.0,43.301290378453274 L 25.0,0" style="stroke:#000000;stroke-width:0.3;fill:none" inkscape:label="MajorYDiv99"/><path d="M 100.0,42.14658930169452 L 27.0,0" style="stroke:#000000;stroke-width:0.3;fill:none" inkscape:label="MajorYDiv99"/><path d="M 100.0,39.83718714817701 L 31.0,0" style="stroke:#000000;stroke-width:0.3;fill:none" inkscape:label="MajorYDiv99"/><path d="M 100.0,38.68248607141825 L 33.0,0" style="stroke:#000000;stroke-width:0.3;fill:none" inkscape:label="MajorYDiv99"/><path d="M 100.0,37.5277849946595 L 35.0,0" style="stroke:#000000;stroke-width:0.3;fill:none" inkscape:label="MajorYDiv99"/><path d="M 100.0,36.37308391790074 L 37.0,0" style="stroke:#000000;stroke-width:0.3;fill:none" inkscape:label="MajorYDiv99"/><path d="M 100.0,34.06368176438323 L 41.0,0" style="stroke:#000000;stroke-width:0.3;fill:none" inkscape:label="MajorYDiv99"/><path d="M 100.0,32.90898068762448 L 43.0,0" style="stroke:#000000;stroke-width:0.3;fill:none" inkscape:label="MajorYDiv99"/><path d="M 100.0,31.754279610865737 L 45.0,0" style="stroke:#000000;stroke-width:0.3;fill:none" inkscape:label="MajorYDiv99"/><path d="M 100.0,30.599578534106982 L 47.0,0" style="stroke:#000000;stroke-width:0.3;fill:none" inkscape:label="MajorYDiv99"/><path d="M 100.0,28.29017638058947 L 51.0,0" style="stroke:#000000;stroke-width:0.3;fill:none" inkscape:label="MajorYDiv99"/><path d="M 100.0,27.135475303830717 L 53.0,0" style="stroke:#000000;stroke-width:0.3;fill:none" inkscape:label="MajorYDiv99"/><path d="M 100.0,25.98077422707196 L 55.0,0" style="stroke:#000000;stroke-width:0.3;fill:none" inkscape:label="MajorYDiv99"/><path d="M 100.0,24.826073150313206 L 57.0,0" style="stroke:#000000;stroke-width:0.3;fill:none" inkscape:label="MajorYDiv99"/><path d="M 100.0,22.516670996795696 L 61.0,0" style="stroke:#000000;stroke-width:0.3;fill:none" inkscape:label="MajorYDiv99"/><path d="M 100.0,21.36196992003694 L 63.0,0" style="stroke:#000000;stroke-width:0.3;fill:none" inkscape:label="MajorYDiv99"/><path d="M 100.0,20.207268843278186 L 65.0,0" style="stroke:#000000;stroke-width:0.3;fill:none" inkscape:label="MajorYDiv99"/><path d="M 100.0,19.05256776651943 L 67.0,0" style="stroke:#000000;stroke-width:0.3;fill:none" inkscape:label="MajorYDiv99"/><path d="M 100.0,16.743165613001935 L 71.0,0" style="stroke:#000000;stroke-width:0.3;fill:none" inkscape:label="MajorYDiv99"/><path d="M 100.0,15.58846453624318 L 73.0,0" style="stroke:#000000;stroke-width:0.3;fill:none" inkscape:label="MajorYDiv99"/><path d="M 100.0,14.433763459484425 L 75.0,0" style="stroke:#000000;stroke-width:0.3;fill:none" inkscape:label="MajorYDiv99"/><path d="M 100.0,13.27906238272567 L 77.0,0" style="stroke:#000000;stroke-width:0.3;fill:none" inkscape:label="MajorYDiv99"/><path d="M 100.0,10.96966022920816 L 81.0,0" style="stroke:#000000;stroke-width:0.3;fill:none" inkscape:label="MajorYDiv99"/><path d="M 100.0,9.814959152449404 L 83.0,0" style="stroke:#000000;stroke-width:0.3;fill:none" inkscape:label="MajorYDiv99"/><path d="M 100.0,8.660258075690649 L 85.0,0" style="stroke:#000000;stroke-width:0.3;fill:none" inkscape:label="MajorYDiv99"/><path d="M 100.0,7.505556998931894 L 87.0,0" style="stroke:#000000;stroke-width:0.3;fill:none" inkscape:label="MajorYDiv99"/><path d="M 100.0,5.196154845414384 L 91.0,0" style="stroke:#000000;stroke-width:0.3;fill:none" inkscape:label="MajorYDiv99"/><path d="M 100.0,4.041453768655629 L 93.0,0" style="stroke:#000000;stroke-width:0.3;fill:none" inkscape:label="MajorYDiv99"/><path d="M 100.0,2.8867526918968736 L 95.0,0" style="stroke:#000000;stroke-width:0.3;fill:none" inkscape:label="MajorYDiv99"/><path d="M 100.0,1.7320516151381327 L 97.0,0" style="stroke:#000000;stroke-width:0.3;fill:none" inkscape:label="MajorYDiv99"/></g><g inkscape:label="MinorZGridlines"><path d="M 91.0,115.4701076758754 L 100.0,110.273952830461" style="stroke:#000000;stroke-width:1.0;fill:none" inkscape:label="MajorZDiv5"/><path d="M 71.0,115.4701076758754 L 100.0,98.72694206287346" style="stroke:#000000;stroke-width:1.0;fill:none" inkscape:label="MajorZDiv15"/><path d="M 51.0,115.4701076758754 L 100.0,87.17993129528593" style="stroke:#000000;stroke-width:1.0;fill:none" inkscape:label="MajorZDiv25"/><path d="M 31.0,115.4701076758754 L 100.0,75.63292052769839" style="stroke:#000000;stroke-width:1.0;fill:none" inkscape:label="MajorZDiv35"/><path d="M 11.0,115.4701076758754 L 100.0,64.08590976011084" style="stroke:#000000;stroke-width:1.0;fill:none" inkscape:label="MajorZDiv45"/><path d="M 0.0,110.273952830461 L 100.0,52.5388989925233" style="stroke:#000000;stroke-width:1.0;fill:none" inkscape:label="MajorZDiv55"/><path d="M 0.0,98.72694206287346 L 100.0,40.991888224935764" style="stroke:#000000;stroke-width:1.0;fill:none" inkscape:label="MajorZDiv65"/><path d="M 0.0,87.17993129528593 L 100.0,29.444877457348227" style="stroke:#000000;stroke-width:1.0;fill:none" inkscape:label="MajorZDiv75"/><path d="M 0.0,75.63292052769839 L 100.0,17.897866689760676" style="stroke:#000000;stroke-width:1.0;fill:none" inkscape:label="MajorZDiv85"/><path d="M 0.0,64.08590976011084 L 100.0,6.350855922173139" style="stroke:#000000;stroke-width:1.0;fill:none" inkscape:label="MajorZDiv95"/><path d="M 0.0,52.5388989925233 L 91.0,0" style="stroke:#000000;stroke-width:1.0;fill:none" inkscape:label="MajorZDiv105"/><path d="M 0.0,40.991888224935764 L 71.0,0" style="stroke:#000000;stroke-width:1.0;fill:none" inkscape:label="MajorZDiv115"/><path d="M 0.0,29.444877457348227 L 51.0,0" style="stroke:#000000;stroke-width:1.0;fill:none" inkscape:label="MajorZDiv125"/><path d="M 0.0,17.897866689760676 L 31.0,0" style="stroke:#000000;stroke-width:1.0;fill:none" inkscape:label="MajorZDiv135"/><path d="M 0.0,6.350855922173139 L 11.0,0" style="stroke:#000000;stroke-width:1.0;fill:none" inkscape:label="MajorZDiv145"/></g><g inkscape:label="SubMinorZGridlines"><path d="M 99.0,115.4701076758754 L 100.0,114.89275713749602" style="stroke:#000000;stroke-width:0.3;fill:none" inkscape:label="MajorZDiv1"/><path d="M 97.0,115.4701076758754 L 100.0,113.73805606073726" style="stroke:#000000;stroke-width:0.3;fill:none" inkscape:label="MajorZDiv2"/><path d="M 95.0,115.4701076758754 L 100.0,112.58335498397851" style="stroke:#000000;stroke-width:0.3;fill:none" inkscape:label="MajorZDiv3"/><path d="M 93.0,115.4701076758754 L 100.0,111.42865390721975" style="stroke:#000000;stroke-width:0.3;fill:none" inkscape:label="MajorZDiv4"/><path d="M 89.0,115.4701076758754 L 100.0,109.11925175370224" style="stroke:#000000;stroke-width:0.3;fill:none" inkscape:label="MajorZDiv6"/><path d="M 87.0,115.4701076758754 L 100.0,107.96455067694349" style="stroke:#000000;stroke-width:0.3;fill:none" inkscape:label="MajorZDiv7"/><path d="M 85.0,115.4701076758754 L 100.0,106.80984960018475" style="stroke:#000000;stroke-width:0.3;fill:none" inkscape:label="MajorZDiv8"/><path d="M 83.0,115.4701076758754 L 100.0,105.65514852342599" style="stroke:#000000;stroke-width:0.3;fill:none" inkscape:label="MajorZDiv9"/><path d="M 79.0,115.4701076758754 L 100.0,103.34574636990848" style="stroke:#000000;stroke-width:0.3;fill:none" inkscape:label="MajorZDiv11"/><path d="M 77.0,115.4701076758754 L 100.0,102.19104529314973" style="stroke:#000000;stroke-width:0.3;fill:none" inkscape:label="MajorZDiv12"/><path d="M 75.0,115.4701076758754 L 100.0,101.03634421639097" style="stroke:#000000;stroke-width:0.3;fill:none" inkscape:label="MajorZDiv13"/><path d="M 73.0,115.4701076758754 L 100.0,99.88164313963222" style="stroke:#000000;stroke-width:0.3;fill:none" inkscape:label="MajorZDiv14"/><path d="M 69.0,115.4701076758754 L 100.0,97.5722409861147" style="stroke:#000000;stroke-width:0.3;fill:none" inkscape:label="MajorZDiv16"/><path d="M 67.0,115.4701076758754 L 100.0,96.41753990935595" style="stroke:#000000;stroke-width:0.3;fill:none" inkscape:label="MajorZDiv17"/><path d="M 65.0,115.4701076758754 L 100.0,95.2628388325972" style="stroke:#000000;stroke-width:0.3;fill:none" inkscape:label="MajorZDiv18"/><path d="M 63.0,115.4701076758754 L 100.0,94.10813775583844" style="stroke:#000000;stroke-width:0.3;fill:none" inkscape:label="MajorZDiv19"/><path d="M 59.0,115.4701076758754 L 100.0,91.79873560232093" style="stroke:#000000;stroke-width:0.3;fill:none" inkscape:label="MajorZDiv21"/><path d="M 57.0,115.4701076758754 L 100.0,90.64403452556218" style="stroke:#000000;stroke-width:0.3;fill:none" inkscape:label="MajorZDiv22"/><path d="M 55.0,115.4701076758754 L 100.0,89.48933344880344" style="stroke:#000000;stroke-width:0.3;fill:none" inkscape:label="MajorZDiv23"/><path d="M 53.0,115.4701076758754 L 100.0,88.33463237204468" style="stroke:#000000;stroke-width:0.3;fill:none" inkscape:label="MajorZDiv24"/><path d="M 49.0,115.4701076758754 L 100.0,86.02523021852717" style="stroke:#000000;stroke-width:0.3;fill:none" inkscape:label="MajorZDiv26"/><path d="M 47.0,115.4701076758754 L 100.0,84.87052914176842" style="stroke:#000000;stroke-width:0.3;fill:none" inkscape:label="MajorZDiv27"/><path d="M 45.0,115.4701076758754 L 100.0,83.71582806500966" style="stroke:#000000;stroke-width:0.3;fill:none" inkscape:label="MajorZDiv28"/><path d="M 43.0,115.4701076758754 L 100.0,82.5611269882509" style="stroke:#000000;stroke-width:0.3;fill:none" inkscape:label="MajorZDiv29"/><path d="M 39.0,115.4701076758754 L 100.0,80.25172483473341" style="stroke:#000000;stroke-width:0.3;fill:none" inkscape:label="MajorZDiv31"/><path d="M 37.0,115.4701076758754 L 100.0,79.09702375797465" style="stroke:#000000;stroke-width:0.3;fill:none" inkscape:label="MajorZDiv32"/><path d="M 35.0,115.4701076758754 L 100.0,77.9423226812159" style="stroke:#000000;stroke-width:0.3;fill:none" inkscape:label="MajorZDiv33"/><path d="M 33.0,115.4701076758754 L 100.0,76.78762160445714" style="stroke:#000000;stroke-width:0.3;fill:none" inkscape:label="MajorZDiv34"/><path d="M 29.0,115.4701076758754 L 100.0,74.47821945093963" style="stroke:#000000;stroke-width:0.3;fill:none" inkscape:label="MajorZDiv36"/><path d="M 27.0,115.4701076758754 L 100.0,73.32351837418088" style="stroke:#000000;stroke-width:0.3;fill:none" inkscape:label="MajorZDiv37"/><path d="M 25.0,115.4701076758754 L 100.0,72.16881729742212" style="stroke:#000000;stroke-width:0.3;fill:none" inkscape:label="MajorZDiv38"/><path d="M 23.0,115.4701076758754 L 100.0,71.01411622066337" style="stroke:#000000;stroke-width:0.3;fill:none" inkscape:label="MajorZDiv39"/><path d="M 19.0,115.4701076758754 L 100.0,68.70471406714586" style="stroke:#000000;stroke-width:0.3;fill:none" inkscape:label="MajorZDiv41"/><path d="M 17.0,115.4701076758754 L 100.0,67.5500129903871" style="stroke:#000000;stroke-width:0.3;fill:none" inkscape:label="MajorZDiv42"/><path d="M 15.0,115.4701076758754 L 100.0,66.39531191362835" style="stroke:#000000;stroke-width:0.3;fill:none" inkscape:label="MajorZDiv43"/><path d="M 13.0,115.4701076758754 L 100.0,65.24061083686959" style="stroke:#000000;stroke-width:0.3;fill:none" inkscape:label="MajorZDiv44"/><path d="M 9.0,115.4701076758754 L 100.0,62.93120868335209" style="stroke:#000000;stroke-width:0.3;fill:none" inkscape:label="MajorZDiv46"/><path d="M 7.0,115.4701076758754 L 100.0,61.776507606593334" style="stroke:#000000;stroke-width:0.3;fill:none" inkscape:label="MajorZDiv47"/><path d="M 5.0,115.4701076758754 L 100.0,60.62180652983458" style="stroke:#000000;stroke-width:0.3;fill:none" inkscape:label="MajorZDiv48"/><path d="M 3.0,115.4701076758754 L 100.0,59.467105453075824" style="stroke:#000000;stroke-width:0.3;fill:none" inkscape:label="MajorZDiv49"/><path d="M 0.0,114.89275713749602 L 100.0,57.15770329955832" style="stroke:#000000;stroke-width:0.3;fill:none" inkscape:label="MajorZDiv51"/><path d="M 0.0,113.73805606073726 L 100.0,56.003002222799566" style="stroke:#000000;stroke-width:0.3;fill:none" inkscape:label="MajorZDiv52"/><path d="M 0.0,112.58335498397851 L 100.0,54.84830114604081" style="stroke:#000000;stroke-width:0.3;fill:none" inkscape:label="MajorZDiv53"/><path d="M 0.0,111.42865390721975 L 100.0,53.693600069282056" style="stroke:#000000;stroke-width:0.3;fill:none" inkscape:label="MajorZDiv54"/><path d="M 0.0,109.11925175370224 L 100.0,51.384197915764545" style="stroke:#000000;stroke-width:0.3;fill:none" inkscape:label="MajorZDiv56"/><path d="M 0.0,107.96455067694349 L 100.0,50.22949683900579" style="stroke:#000000;stroke-width:0.3;fill:none" inkscape:label="MajorZDiv57"/><path d="M 0.0,106.80984960018475 L 100.0,49.074795762247035" style="stroke:#000000;stroke-width:0.3;fill:none" inkscape:label="MajorZDiv58"/><path d="M 0.0,105.65514852342599 L 100.0,47.92009468548828" style="stroke:#000000;stroke-width:0.3;fill:none" inkscape:label="MajorZDiv59"/><path d="M 0.0,103.34574636990848 L 100.0,45.610692531970784" style="stroke:#000000;stroke-width:0.3;fill:none" inkscape:label="MajorZDiv61"/><path d="M 0.0,102.19104529314973 L 100.0,44.45599145521203" style="stroke:#000000;stroke-width:0.3;fill:none" inkscape:label="MajorZDiv62"/><path d="M 0.0,101.03634421639097 L 100.0,43.301290378453274" style="stroke:#000000;stroke-width:0.3;fill:none" inkscape:label="MajorZDiv63"/><path d="M 0.0,99.88164313963222 L 100.0,42.14658930169452" style="stroke:#000000;stroke-width:0.3;fill:none" inkscape:label="MajorZDiv64"/><path d="M 0.0,97.5722409861147 L 100.0,39.83718714817701" style="stroke:#000000;stroke-width:0.3;fill:none" inkscape:label="MajorZDiv66"/><path d="M 0.0,96.41753990935595 L 100.0,38.68248607141825" style="stroke:#000000;stroke-width:0.3;fill:none" inkscape:label="MajorZDiv67"/><path d="M 0.0,95.2628388325972 L 100.0,37.5277849946595" style="stroke:#000000;stroke-width:0.3;fill:none" inkscape:label="MajorZDiv68"/><path d="M 0.0,94.10813775583844 L 100.0,36.37308391790074" style="stroke:#000000;stroke-width:0.3;fill:none" inkscape:label="MajorZDiv69"/><path d="M 0.0,91.79873560232093 L 100.0,34.06368176438323" style="stroke:#000000;stroke-width:0.3;fill:none" inkscape:label="MajorZDiv71"/><path d="M 0.0,90.64403452556218 L 100.0,32.90898068762448" style="stroke:#000000;stroke-width:0.3;fill:none" inkscape:label="MajorZDiv72"/><path d="M 0.0,89.48933344880344 L 100.0,31.754279610865737" style="stroke:#000000;stroke-width:0.3;fill:none" inkscape:label="MajorZDiv73"/><path d="M 0.0,88.33463237204468 L 100.0,30.599578534106982" style="stroke:#000000;stroke-width:0.3;fill:none" inkscape:label="MajorZDiv74"/><path d="M 0.0,86.02523021852717 L 100.0,28.29017638058947" style="stroke:#000000;stroke-width:0.3;fill:none" inkscape:label="MajorZDiv76"/><path d="M 0.0,84.87052914176842 L 100.0,27.135475303830717" style="stroke:#000000;stroke-width:0.3;fill:none" inkscape:label="MajorZDiv77"/><path d="M 0.0,83.71582806500966 L 100.0,25.98077422707196" style="stroke:#000000;stroke-width:0.3;fill:none" inkscape:label="MajorZDiv78"/><path d="M 0.0,82.5611269882509 L 100.0,24.826073150313206" style="stroke:#000000;stroke-width:0.3;fill:none" inkscape:label="MajorZDiv79"/><path d="M 0.0,80.25172483473341 L 100.0,22.516670996795696" style="stroke:#000000;stroke-width:0.3;fill:none" inkscape:label="MajorZDiv81"/><path d="M 0.0,79.09702375797465 L 100.0,21.36196992003694" style="stroke:#000000;stroke-width:0.3;fill:none" inkscape:label="MajorZDiv82"/><path d="M 0.0,77.9423226812159 L 100.0,20.207268843278186" style="stroke:#000000;stroke-width:0.3;fill:none" inkscape:label="MajorZDiv83"/><path d="M 0.0,76.78762160445714 L 100.0,19.05256776651943" style="stroke:#000000;stroke-width:0.3;fill:none" inkscape:label="MajorZDiv84"/><path d="M 0.0,74.47821945093963 L 100.0,16.743165613001935" style="stroke:#000000;stroke-width:0.3;fill:none" inkscape:label="MajorZDiv86"/><path d="M 0.0,73.32351837418088 L 100.0,15.58846453624318" style="stroke:#000000;stroke-width:0.3;fill:none" inkscape:label="MajorZDiv87"/><path d="M 0.0,72.16881729742212 L 100.0,14.433763459484425" style="stroke:#000000;stroke-width:0.3;fill:none" inkscape:label="MajorZDiv88"/><path d="M 0.0,71.01411622066337 L 100.0,13.27906238272567" style="stroke:#000000;stroke-width:0.3;fill:none" inkscape:label="MajorZDiv89"/><path d="M 0.0,68.70471406714586 L 100.0,10.96966022920816" style="stroke:#000000;stroke-width:0.3;fill:none" inkscape:label="MajorZDiv91"/><path d="M 0.0,67.5500129903871 L 100.0,9.814959152449404" style="stroke:#000000;stroke-width:0.3;fill:none" inkscape:label="MajorZDiv92"/><path d="M 0.0,66.39531191362835 L 100.0,8.660258075690649" style="stroke:#000000;stroke-width:0.3;fill:none" inkscape:label="MajorZDiv93"/><path d="M 0.0,65.24061083686959 L 100.0,7.505556998931894" style="stroke:#000000;stroke-width:0.3;fill:none" inkscape:label="MajorZDiv94"/><path d="M 0.0,62.93120868335209 L 100.0,5.196154845414384" style="stroke:#000000;stroke-width:0.3;fill:none" inkscape:label="MajorZDiv96"/><path d="M 0.0,61.776507606593334 L 100.0,4.041453768655629" style="stroke:#000000;stroke-width:0.3;fill:none" inkscape:label="MajorZDiv97"/><path d="M 0.0,60.62180652983458 L 100.0,2.8867526918968736" style="stroke:#000000;stroke-width:0.3;fill:none" inkscape:label="MajorZDiv98"/><path d="M 0.0,59.467105453075824 L 100.0,1.7320516151381327" style="stroke:#000000;stroke-width:0.3;fill:none" inkscape:label="MajorZDiv99"/><path d="M 0.0,57.15770329955832 L 99.0,0" style="stroke:#000000;stroke-width:0.3;fill:none" inkscape:label="MajorZDiv101"/><path d="M 0.0,56.003002222799566 L 97.0,0" style="stroke:#000000;stroke-width:0.3;fill:none" inkscape:label="MajorZDiv102"/><path d="M 0.0,54.84830114604081 L 95.0,0" style="stroke:#000000;stroke-width:0.3;fill:none" inkscape:label="MajorZDiv103"/><path d="M 0.0,53.693600069282056 L 93.0,0" style="stroke:#000000;stroke-width:0.3;fill:none" inkscape:label="MajorZDiv104"/><path d="M 0.0,51.384197915764545 L 89.0,0" style="stroke:#000000;stroke-width:0.3;fill:none" inkscape:label="MajorZDiv106"/><path d="M 0.0,50.22949683900579 L 87.0,0" style="stroke:#000000;stroke-width:0.3;fill:none" inkscape:label="MajorZDiv107"/><path d="M 0.0,49.074795762247035 L 85.0,0" style="stroke:#000000;stroke-width:0.3;fill:none" inkscape:label="MajorZDiv108"/><path d="M 0.0,47.92009468548828 L 83.0,0" style="stroke:#000000;stroke-width:0.3;fill:none" inkscape:label="MajorZDiv109"/><path d="M 0.0,45.610692531970784 L 79.0,0" style="stroke:#000000;stroke-width:0.3;fill:none" inkscape:label="MajorZDiv111"/><path d="M 0.0,44.45599145521203 L 77.0,0" style="stroke:#000000;stroke-width:0.3;fill:none" inkscape:label="MajorZDiv112"/><path d="M 0.0,43.301290378453274 L 75.0,0" style="stroke:#000000;stroke-width:0.3;fill:none" inkscape:label="MajorZDiv113"/><path d="M 0.0,42.14658930169452 L 73.0,0" style="stroke:#000000;stroke-width:0.3;fill:none" inkscape:label="MajorZDiv114"/><path d="M 0.0,39.83718714817701 L 69.0,0" style="stroke:#000000;stroke-width:0.3;fill:none" inkscape:label="MajorZDiv116"/><path d="M 0.0,38.68248607141825 L 67.0,0" style="stroke:#000000;stroke-width:0.3;fill:none" inkscape:label="MajorZDiv117"/><path d="M 0.0,37.5277849946595 L 65.0,0" style="stroke:#000000;stroke-width:0.3;fill:none" inkscape:label="MajorZDiv118"/><path d="M 0.0,36.37308391790074 L 63.0,0" style="stroke:#000000;stroke-width:0.3;fill:none" inkscape:label="MajorZDiv119"/><path d="M 0.0,34.06368176438323 L 59.0,0" style="stroke:#000000;stroke-width:0.3;fill:none" inkscape:label="MajorZDiv121"/><path d="M 0.0,32.90898068762448 L 57.0,0" style="stroke:#000000;stroke-width:0.3;fill:none" inkscape:label="MajorZDiv122"/><path d="M 0.0,31.754279610865737 L 55.0,0" style="stroke:#000000;stroke-width:0.3;fill:none" inkscape:label="MajorZDiv123"/><path d="M 0.0,30.599578534106982 L 53.0,0" style="stroke:#000000;stroke-width:0.3;fill:none" inkscape:label="MajorZDiv124"/><path d="M 0.0,28.29017638058947 L 49.0,0" style="stroke:#000000;stroke-width:0.3;fill:none" inkscape:label="MajorZDiv126"/><path d="M 0.0,27.135475303830717 L 47.0,0" style="stroke:#000000;stroke-width:0.3;fill:none" inkscape:label="MajorZDiv127"/><path d="M 0.0,25.98077422707196 L 45.0,0" style="stroke:#000000;stroke-width:0.3;fill:none" inkscape:label="MajorZDiv128"/><path d="M 0.0,24.826073150313206 L 43.0,0" style="stroke:#000000;stroke-width:0.3;fill:none" inkscape:label="MajorZDiv129"/><path d="M 0.0,22.516670996795696 L 39.0,0" style="stroke:#000000;stroke-width:0.3;fill:none" inkscape:label="MajorZDiv131"/><path d="M 0.0,21.36196992003694 L 37.0,0" style="stroke:#000000;stroke-width:0.3;fill:none" inkscape:label="MajorZDiv132"/><path d="M 0.0,20.207268843278186 L 35.0,0" style="stroke:#000000;stroke-width:0.3;fill:none" inkscape:label="MajorZDiv133"/><path d="M 0.0,19.05256776651943 L 33.0,0" style="stroke:#000000;stroke-width:0.3;fill:none" inkscape:label="MajorZDiv134"/><path d="M 0.0,16.743165613001935 L 29.0,0" style="stroke:#000000;stroke-width:0.3;fill:none" inkscape:label="MajorZDiv136"/><path d="M 0.0,15.58846453624318 L 27.0,0" style="stroke:#000000;stroke-width:0.3;fill:none" inkscape:label="MajorZDiv137"/><path d="M 0.0,14.433763459484425 L 25.0,0" style="stroke:#000000;stroke-width:0.3;fill:none" inkscape:label="MajorZDiv138"/><path d="M 0.0,13.27906238272567 L 23.0,0" style="stroke:#000000;stroke-width:0.3;fill:none" inkscape:label="MajorZDiv139"/><path d="M 0.0,10.96966022920816 L 19.0,0" style="stroke:#000000;stroke-width:0.3;fill:none" inkscape:label="MajorZDiv141"/><path d="M 0.0,9.814959152449404 L 17.0,0" style="stroke:#000000;stroke-width:0.3;fill:none" inkscape:label="MajorZDiv142"/><path d="M 0.0,8.660258075690649 L 15.0,0" style="stroke:#000000;stroke-width:0.3;fill:none" inkscape:label="MajorZDiv143"/><path d="M 0.0,7.505556998931894 L 13.0,0" style="stroke:#000000;stroke-width:0.3;fill:none" inkscape:label="MajorZDiv144"/><path d="M 0.0,5.196154845414384 L 9.0,0" style="stroke:#000000;stroke-width:0.3;fill:none" inkscape:label="MajorZDiv146"/><path d="M 0.0,4.041453768655629 L 7.0,0" style="stroke:#000000;stroke-width:0.3;fill:none" inkscape:label="MajorZDiv147"/><path d="M 0.0,2.8867526918968736 L 5.0,0" style="stroke:#000000;stroke-width:0.3;fill:none" inkscape:label="MajorZDiv148"/><path d="M 0.0,1.7320516151381327 L 3.0,0" style="stroke:#000000;stroke-width:0.3;fill:none" inkscape:label="MajorZDiv149"/></g><rect height="115.4701076758754" style="stroke:#000000;stroke-width:3.0;fill:none" width="100.0" x="0" y="0" inkscape:label="Border"/></g></g>
  <g inkscape:groupmode="layer" id="layer2" inkscape:label="Slide2" style="display:inline">
    <circle style="display:inline;fill:#000080;stroke:none" id="c1" cx="150" cy="450" r="50" inkscape:label="#path3736"/>
    <ellipse style="display:inline;fill:none;stroke:#ff0000;stroke-width:16" id="c2" cx="400" cy="450" rx="100" ry="50" inkscape:label="#path3738"/>
    <path style="display:inline;fill:#ffff00;stroke:#008000;stroke-width:16" id="c3" sodipodi:type="arc" sodipodi:cx="700" sodipodi:cy="450" sodipodi:rx="100" sodipodi:ry="50" sodipodi:start="0.59013865" sodipodi:end="5.6484511" d="m 783.08635,477.82381 a 100,50 0 0 1 -111.09848,20.17442 100,50 0 0 1 -71.96301,-46.88343 100,50 0 0 1 67.71127,-48.44091 100,50 0 0 1 112.7868,17.67793 L 700,450 Z" inkscape:label="#path3740"/>
    <path style="display:inline;fill:none;stroke:#000000;stroke-width:10;marker-start:url(#Arrow2Lstart)" d="M 100,600 200,700 300,600 400,700" id="p1" inkscape:connector-curvature="0" inkscape:label="#path3746"/>
    <path style="display:inline;fill:none;stroke:#000000;stroke-width:10" d="m 500,600 c 0,0 0,100 100,100 100,0 0,-100 100,-100 100,0 100,100 100,100" id="p2" inkscape:connector-curvature="0" inkscape:label="#path3748"/>
    <path sodipodi:type="star" style="display:inline;fill:#ffff00;stroke:#008000;stroke-width:10" id="s1" sodipodi:sides="5" sodipodi:cx="189.03001" sodipodi:cy="847.93945" sodipodi:r1="69.364868" sodipodi:r2="34.682434" sodipodi:arg1="0.63598373" sodipodi:arg2="1.2643023" inkscape:flatsided="false" inkscape:rounded="0" inkscape:randomized="0" d="m 244.8332,889.14005 -45.33887,-8.13446 -32.40428,32.73753 -6.27415,-45.63352 -41.14872,-20.70184 41.46124,-20.06861 6.97297,-45.53197 31.89861,33.23044 45.45824,-7.43847 -21.74681,40.60615 z" inkscape:transform-center-x="6.4673011" inkscape:transform-center-y="-0.16430137"/>
    <use style="display:inline" x="0" y="0" xlink:href="#s1" inkscape:transform-center-x="6.4673011" inkscape:transform-center-y="-0.16430137" id="u1" transform="translate(200,2.9962152)" width="100%" height="100%" inkscape:label="#use3808"/>
  </g>
  <g inkscape:label="Slide1" inkscape:groupmode="layer" id="layer1" style="display:inline">
    <text xml:space="preserve" style="font-size:14.66666698px;line-height:1.25;font-family:sans-serif;fill:#000000;stroke:none" x="100" y="100" id="t1" inkscape:label="#text12"><tspan sodipodi:role="line" id="tspan10" x="100" y="100">Hello World</tspan></text>
    <flowRoot xml:space="preserve" id="t4" style="font-size:40px;line-height:1.25;font-family:sans-serif;fill:#000000;stroke:none" transform="matrix(0.26458333,0,0,0.26458333,372.02961,28.904505)" inkscape:label="#flowRoot14"><flowRegion id="flowRegion16"><rect id="rect18" width="264.5675" height="262.16187" x="105.71429" y="219.66254"/></flowRegion><flowPara id="flowPara20" style="font-size:55.43307114px">flow text which wraps</flowPara></flowRoot>    <text xml:space="preserve" style="font-size:14.66666698px;line-height:1.25;font-family:sans-serif;fill:#000000;stroke:none" x="200" y="100" id="t2" inkscape:label="#text3727"><tspan sodipodi:role="line" id="tspan3725" x="200" y="100" style="font-size:14.66666698px">UPPER</tspan></text>
    <text xml:space="preserve" style="font-size:10.58333302px;line-height:1.25;font-family:sans-serif;fill:#000000;stroke:none" x="300" y="100" id="t3" inkscape:label="#text3735"><tspan sodipodi:role="line" id="tspan3733" x="300" y="100" style="font-size:14.66666698px">Multi line</tspan><tspan sodipodi:role="line" x="300" y="118.33334" id="tspan3737" style="font-size:14.66666698px">text</tspan><tspan sodipodi:role="line" x="300" y="136.66667" id="tspan3739" style="font-size:14.66666698px">FOO</tspan></text>
    <g id="t5" transform="translate(445.71038,-129.64807)" inkscape:label="#g3772">
      <text id="text3762" y="229.64807" x="54.289616" style="font-size:10.58333302px;line-height:1.25;font-family:sans-serif;fill:#000000;stroke:none" xml:space="preserve"><tspan y="229.64807" x="54.289616" id="tspan3760" sodipodi:role="line" style="font-size:14.66666698px">Grouped</tspan></text>
      <text id="text3766" y="259.64807" x="54.289619" style="font-size:14.66666698px;line-height:1.25;font-family:sans-serif;fill:#000000;stroke:none" xml:space="preserve"><tspan y="259.64807" x="54.289619" id="tspan3764" sodipodi:role="line" style="font-size:14.66666698px">text</tspan></text>
    </g>
    <rect style="fill:#000080;stroke:none" id="r1" width="100" height="100" x="100" y="200" inkscape:label="#rect3732"/>
    <rect style="fill:none;stroke:#ff0000;stroke-width:16" id="r2" width="200" height="100" x="300" y="200" inkscape:label="#rect3734"/>
    <rect style="fill:#ffff00;stroke:#008000;stroke-width:16" id="r3" width="200" height="100" x="600" y="200" ry="38.950798" rx="44.943226" inkscape:label="#rect3744"/>
  </g>
  <script ns1:version="1.5.5" id="JessyInk">// dummy
</script>
</svg>