
<!DOCTYPE html>
<html>
<head>
    <title>Inkscape Output</title>
</head>
<body>
    <canvas id='canvas' width='1000' height='1000'></canvas>
    <script>
    var ctx = document.getElementById("canvas").getContext("2d");
    	
// #webslicer-layer
	
// #slicerect1
	ctx.beginPath();
	ctx.globalAlpha = 0.5;
	ctx.fillStyle = 'rgb(255, 0, 0)';
	ctx.lineWidth = 1.119272;
	ctx.rect(651.308900, 353.926610, 248.691120, 201.498110);
	ctx.fill();
	
// #layer2
	
// #c1
	ctx.beginPath();
	ctx.fillStyle = 'rgb(0, 0, 128)';
	ctx.arc(150.000000, 450.000000, 50.000000, 0.000000, 6.28318531, 1);
	ctx.fill();
	
// #c2
	ctx.beginPath();
	ctx.strokeStyle = 'rgb(255, 0, 0)';
	ctx.lineWidth = 16.000000;
	ctx.moveTo(400.000000, 400.000000);
	ctx.bezierCurveTo(455.228475, 400.000000, 500.000000, 422.385763, 500.000000, 450.000000);
	ctx.bezierCurveTo(500.000000, 477.614237, 455.228475, 500.000000, 400.000000, 500.000000);
	ctx.bezierCurveTo(344.771525, 500.000000, 300.000000, 477.614237, 300.000000, 450.000000);
	ctx.bezierCurveTo(300.000000, 422.385763, 344.771525, 400.000000, 400.000000, 400.000000);
	ctx.stroke();
	
// #c3
	ctx.beginPath();
	ctx.fillStyle = 'rgb(255, 255, 0)';
	ctx.strokeStyle = 'rgb(0, 128, 0)';
	ctx.lineWidth = 16.000000;
	ctx.moveTo(783.086350, 477.823810);
	ctx.translate(699.999997, 449.999999);
	ctx.rotate(0.000000);
	ctx.scale(1.000000, 0.500000);
	ctx.arc(0.000000, 0.000000, 100.000000, 0.590139, 1.85471676, 0);
	ctx.scale(1.000000, 2.000000);
	ctx.rotate(-0.000000);
	ctx.translate(-699.999997, -449.999999);
	ctx.translate(700.000001, 450.000000);
	ctx.rotate(0.000000);
	ctx.scale(1.000000, 0.500000);
	ctx.arc(0.000000, 0.000000, 100.000000, 1.854717, 3.11929480, 0);
	ctx.scale(1.000000, 2.000000);
	ctx.rotate(-0.000000);
	ctx.translate(-700.000001, -450.000000);
	ctx.translate(700.000001, 450.000000);
	ctx.rotate(0.000000);
	ctx.scale(1.000000, 0.500000);
	ctx.arc(0.000000, 0.000000, 100.000000, 3.119295, 4.38387301, 0);
	ctx.scale(1.000000, 2.000000);
	ctx.rotate(-0.000000);
	ctx.translate(-700.000001, -450.000000);
	ctx.translate(700.000003, 449.999999);
	ctx.rotate(0.000000);
	ctx.scale(1.000000, 0.500000);
	ctx.arc(0.000000, 0.000000, 100.000000, -1.899312, -0.63473430, 0);
	ctx.scale(1.000000, 2.000000);
	ctx.rotate(-0.000000);
	ctx.translate(-700.000003, -449.999999);
	ctx.lineTo(700.000000, 450.000000);
	ctx.fill();
	ctx.stroke();
	
// #p1
	ctx.beginPath();
	ctx.strokeStyle = 'rgb(0, 0, 0)';
	ctx.lineWidth = 10.000000;
	ctx.moveTo(100.000000, 600.000000);
	ctx.lineTo(200.000000, 700.000000);
	ctx.lineTo(300.000000, 600.000000);
	ctx.lineTo(400.000000, 700.000000);
	ctx.stroke();
	
// #p2
	ctx.beginPath();
	ctx.strokeStyle = 'rgb(0, 0, 0)';
	ctx.lineWidth = 10.000000;
	ctx.moveTo(500.000000, 600.000000);
	ctx.bezierCurveTo(500.000000, 600.000000, 500.000000, 700.000000, 600.000000, 700.000000);
	ctx.bezierCurveTo(700.000000, 700.000000, 600.000000, 600.000000, 700.000000, 600.000000);
	ctx.bezierCurveTo(800.000000, 600.000000, 800.000000, 700.000000, 800.000000, 700.000000);
	ctx.stroke();
	
// #s1
	ctx.beginPath();
	ctx.fillStyle = 'rgb(255, 255, 0)';
	ctx.strokeStyle = 'rgb(0, 128, 0)';
	ctx.lineWidth = 10.000000;
	ctx.moveTo(244.833200, 889.140050);
	ctx.lineTo(199.494330, 881.005590);
	ctx.lineTo(167.090050, 913.743120);
	ctx.lineTo(160.815900, 868.109600);
	ctx.lineTo(119.667180, 847.407760);
	ctx.lineTo(161.128420, 827.339150);
	ctx.lineTo(168.101390, 781.807180);
	ctx.lineTo(200.000000, 815.037620);
	ctx.lineTo(245.458240, 807.599150);
	ctx.lineTo(223.711430, 848.205300);
	ctx.fill();
	ctx.stroke();
	
// #layer1
	
// #t1
	ctx.fillStyle = 'rgb(0, 0, 0)';
	ctx.font = "14.66666698px sans-serif";
	ctx.fillText("Hello World", 100.000000, 100.000000);
	
// #t2
	ctx.fillStyle = 'rgb(0, 0, 0)';
	ctx.font = "14.66666698px sans-serif";
	ctx.fillText("UPPER", 200.000000, 100.000000);
	
// #t3
	ctx.fillStyle = 'rgb(0, 0, 0)';
	ctx.font = "10.58333302px sans-serif";
	ctx.fillText("Multi line", 300.000000, 100.000000);
	ctx.fillText("text", 300.000000, 118.333340);
	ctx.fillText("FOO", 300.000000, 136.666670);
	
// #t5
	ctx.save();
	ctx.transform(1.000000, 0.000000, 0.000000, 1.000000, 445.710000, -129.648000);
	
// #text3762
	ctx.fillStyle = 'rgb(0, 0, 0)';
	ctx.font = "10.58333302px sans-serif";
	ctx.fillText("Grouped", 54.289616, 229.648070);
	
// #text3766
	ctx.fillStyle = 'rgb(0, 0, 0)';
	ctx.font = "14.66666698px sans-serif";
	ctx.fillText("text", 54.289619, 259.648070);
	ctx.restore();
	
// #r1
	ctx.beginPath();
	ctx.fillStyle = 'rgb(0, 0, 128)';
	ctx.rect(100.000000, 200.000000, 100.000000, 100.000000);
	ctx.fill();
	
// #r2
	ctx.beginPath();
	ctx.strokeStyle = 'rgb(255, 0, 0)';
	ctx.lineWidth = 16.000000;
	ctx.rect(300.000000, 200.000000, 200.000000, 100.000000);
	ctx.stroke();
	
// #r3
	ctx.beginPath();
	ctx.fillStyle = 'rgb(255, 255, 0)';
	ctx.strokeStyle = 'rgb(0, 128, 0)';
	ctx.lineWidth = 16.000000;
	ctx.moveTo(600.000000, 238.950798);
	ctx.lineTo(600.000000, 261.049202);
	ctx.quadraticCurveTo(600.000000, 300.000000, 644.943226, 300.000000);
	ctx.lineTo(755.056774, 300.000000);
	ctx.quadraticCurveTo(800.000000, 300.000000, 800.000000, 261.049202);
	ctx.lineTo(800.000000, 238.950798);
	ctx.quadraticCurveTo(800.000000, 200.000000, 755.056774, 200.000000);
	ctx.lineTo(644.943226, 200.000000);
	ctx.quadraticCurveTo(600.000000, 200.000000, 600.000000, 238.950798);
	ctx.fill();
	ctx.stroke();

    </script>
</body>
</html>
